Place,Name,Sex,Event,Division,WeightClassKg,Equipment,BirthYear,Team,State,BodyweightKg,Squat1Kg,Squat2Kg,Squat3Kg,Best3SquatKg,Bench1Kg,Bench2Kg,Bench3Kg,Best3BenchKg,Deadlift1Kg,Deadlift2Kg,Deadlift3Kg,Best3DeadliftKg,TotalKg,Age,BirthDate
G,Scarlett McCoy,F,SBD,F-G,75,Single-ply,2008,,TX,74.4,100,110,-125,110,40,47.5,52.5,52.5,110,122.5,-140,122.5,285,,
G,Mackena Peterson,F,SBD,F-G,67.5,Single-ply,2005,,WI,60.2,-87.5,87.5,95,95,40,42.5,45,45,102.5,112.5,115,115,255,,
1,Yolanda Bautista Santiago,F,SBD,F-JV,56,Single-ply,2008,,WI,52.3,62.5,70,75,75,25,30,32.5,32.5,67.5,77.5,85,85,192.5,,
1,Braidy Killian,F,SBD,F-JV,75,Single-ply,2007,,WI,68.15,120,125,-130,125,65,70,-72.5,70,120,130,135,135,330,,
1,Vanessa Anderson-Hernandez,F,SBD,F-JV,100+,Single-ply,2008,,WI,107.2,65,72.5,80,80,42.5,47.5,50,50,87.5,97.5,102.5,102.5,232.5,,
1,Andrea Laehn,F,SBD,F-V,44,Single-ply,2005,,WI,42.65,77.5,85,90,90,37.5,-42.5,42.5,42.5,80,-87.5,87.5,87.5,220,,
1,Brianna Ankerson,F,SBD,F-V,48,Single-ply,2007,Neenah Powerlifting,WI,47.25,100,-107.5,-107.5,100,40,42.5,-45,42.5,102.5,112.5,-120,112.5,255,,
1,Khandi C Shuford,F,SBD,F-V,52,Single-ply,2008,Abbeville,LA,51.6,115,130,-142.5,130,60,70,-75,70,120,135,145,145,345,,
2,Taylor Eubanks,F,SBD,F-V,52,Single-ply,2006,TruBorn Strong,LA,51.25,87.5,95,-97.5,95,40,42.5,47.5,47.5,87.5,92.5,97.5,97.5,240,,
1,Grace Cassidy,F,SBD,F-V,56,Single-ply,2005,,LA,56,120,135,142.5,142.5,80,87.5,-90,87.5,120,132.5,140,140,370,,
2,Makenzie Rachal,F,SBD,F-V,56,Single-ply,2005,TruBorn Strong,LA,55.5,115,-122.5,122.5,122.5,62.5,67.5,70,70,122.5,130,135,135,327.5,,
3,Elizabeth Phillips,F,SBD,F-V,56,Single-ply,2008,Abbeville,LA,53.5,102.5,115,122.5,122.5,62.5,70,75,75,107.5,117.5,-122.5,117.5,315,,
1,Allison Hoerner,F,SBD,F-V,60,Single-ply,2005,,TX,59.8,150,157.5,162.5,162.5,85,92.5,97.5,97.5,147.5,157.5,165,165,425,,
2,Lydia Shields,F,SBD,F-V,60,Single-ply,2005,,LA,58.05,122.5,137.5,145,145,67.5,75,80,80,112.5,125,132.5,132.5,357.5,,
3,Ayden Lege,F,SBD,F-V,60,Single-ply,2006,,LA,58.55,100,112.5,120,120,50,-55,55,55,107.5,117.5,125,125,300,,
1,Haylee Bourque,F,SBD,F-V,75,Single-ply,2005,Abbeville,LA,74.35,155,-157.5,175,175,72.5,80,-85,80,115,127.5,135,135,390,,
2,Ava Meyer,F,SBD,F-V,75,Single-ply,2006,Neenah Powerlifting,WI,74.35,147.5,-155,155,155,55,-60,60,60,135,145,150,150,365,,
3,Natalie Hyde,F,SBD,F-V,75,Single-ply,2007,TruBorn Strong,LA,74.95,-127.5,127.5,142.5,142.5,70,77.5,-87.5,77.5,102.5,137.5,-150,137.5,357.5,,
4,Haley Plaisance,F,SBD,F-V,75,Single-ply,2008,Abbeville,LA,74.5,120,-132.5,132.5,132.5,60,67.5,72.5,72.5,92.5,107.5,112.5,112.5,317.5,,
5,Zoe Mello,F,SBD,F-V,75,Single-ply,2005,,TX,69.2,107.5,120,-127.5,120,45,-50,-50,45,120,130,-140,130,295,,
1,Jayla Dandridge,F,SBD,F-V,90,Single-ply,2004,,TX,90,197.5,-212.5,-212.5,197.5,60,72.5,85,85,130,145,-152.5,145,427.5,,
2,Tayler Guidry,F,SBD,F-V,90,Single-ply,2005,,LA,88.55,147.5,157.5,-167.5,157.5,80,90,95,95,115,130,-135,130,382.5,,
1,Brylee Batiste,F,SBD,F-V,100,Single-ply,2007,Abbeville,LA,95.95,185,200,210,210,95,-105,-105,95,170,185,190,190,495,,
2,Dinah Ellzey,F,SBD,F-V,100,Single-ply,2006,TruBorn Strong,LA,99.55,-162.5,-165,167.5,167.5,82.5,87.5,92.5,92.5,147.5,155,-162.5,155,415,,
1,Molly Wysocky,F,SBD,F-V,67.5,Single-ply,2005,,WI,63.9,125,135,145,145,-65,65,-75,65,125,-127.5,-137.5,125,335,,
2,Grace Braus,F,SBD,F-V,67.5,Single-ply,2007,,LA,65.9,117.5,-130,130,130,55,62.5,67.5,67.5,122.5,-137.5,-140,122.5,320,,
DQ,Kathryn Sindelar,F,SBD,F-V,67.5,Single-ply,2005,,WI,65.25,-92.5,92.5,102.5,102.5,-45,-45,-45,,115,-125,-125,115,,,
1,Abigail Hoelzel,F,SBD,F-V,82.5,Single-ply,2005,Neenah Powerlifting,WI,79.45,142.5,150,152.5,152.5,62.5,67.5,70,70,130,140,145,145,367.5,,
2,Baylee Johnson,F,SBD,F-V,82.5,Single-ply,2007,TruBorn Strong,LA,81.8,130,137.5,150,150,67.5,-75,-75,67.5,132.5,140,-152.5,140,357.5,,
3,Alivia Montezuma,F,SBD,F-V,82.5,Single-ply,2004,,WI,82.4,-127.5,-127.5,127.5,127.5,-62.5,65,72.5,72.5,115,-125,125,125,325,,
1,Brooke Sheetz,F,SBD,FR-AA,100+,Raw,2005,,WA,107.1,92.5,-100,100,100,55,57.5,60,60,80,-102.5,-102.5,80,240,,
G,Kaylani Alexis Lyons,F,SBD,FR-G,90,Raw,2007,,AZ,89.45,152.5,160,-167.5,160,90,95,-97.5,95,142.5,147.5,152.5,152.5,407.5,,
G,Kenedee Rowen,F,SBD,FR-G,67.5,Raw,2005,,SD,60.1,130,135,-140,135,70,72.5,-75,72.5,130,137.5,142.5,142.5,350,,
G,Kailyn Jackowick,F,SBD,FR-G,67.5,Raw,2005,,WI,66.7,-105,110,117.5,117.5,50,55,-57.5,55,105,115,-120,115,287.5,,
G,Kali Jackowick,F,SBD,FR-G,67.5,Raw,2006,,WI,67.2,92.5,102.5,-107.5,102.5,42.5,47.5,-52.5,47.5,100,107.5,-112.5,107.5,257.5,,
G,Jada Thompson,F,SBD,FR-G,67.5,Raw,2005,,WI,62,80,90,-97.5,90,42.5,45,-50,45,107.5,112.5,117.5,117.5,252.5,,
G,Jamie Hopson,F,SBD,FR-G,82.5,Raw,2006,,WI,81,110,120,132.5,132.5,50,-57.5,-57.5,50,130,-142.5,142.5,142.5,325,,
1,Katarina Tasich,F,SBD,FR-JV,48,Raw,2008,Troy Athens Powerlifting,MI,47.45,75,80,-82.5,80,37.5,40,42.5,42.5,95,102.5,107.5,107.5,230,,
2,Kaelin Halstead,F,SBD,FR-JV,48,Raw,2006,,WI,47.45,75,80,-85,80,32.5,35,-40,35,80,-92.5,92.5,92.5,207.5,,
3,Noreen Martin,F,SBD,FR-JV,48,Raw,2007,,WI,46.4,42.5,50,55,55,35,40,42.5,42.5,92.5,102.5,-110,102.5,200,,
4,Reese Caffery,F,SBD,FR-JV,48,Raw,2007,,NJ,47.5,67.5,75,77.5,77.5,30,32.5,35,35,80,-90,-90,80,192.5,,
1,Kira Engquist,F,SBD,FR-JV,52,Raw,2006,,WI,52,80,87.5,95,95,45,-47.5,-50,45,102.5,110,-117.5,110,250,,
1,Lydia Anderson,F,SBD,FR-JV,56,Raw,2007,,MA,55.05,90,95,100,100,47.5,50,52.5,52.5,-110,117.5,122.5,122.5,275,,
2,Hannah LaGesse,F,SBD,FR-JV,56,Raw,2006,,WI,54.4,95,102.5,-105,102.5,50,-57.5,-57.5,50,107.5,115,120,120,272.5,,
3,Lucy Braund,F,SBD,FR-JV,56,Raw,2008,,WI,55.3,80,85,90,90,45,47.5,-50,47.5,105,115,120,120,257.5,,
4,Brooke Svihovec,F,SBD,FR-JV,56,Raw,2008,Elk Mound High School Powerlifting,WI,53.85,77.5,80,82.5,82.5,35,-40,-40,35,95,100,-112.5,100,217.5,,
5,Isabella Rodriguez,F,SBD,FR-JV,56,Raw,2008,,WI,53.45,62.5,67.5,70,70,-32.5,-32.5,32.5,32.5,82.5,-92.5,-92.5,82.5,185,,
6,Carson Coburn,F,SBD,FR-JV,56,Raw,2006,,WI,53.55,45,50,-55,50,25,30,-35,30,77.5,82.5,90,90,170,,
DQ,Morgan Koxlien,F,SBD,FR-JV,56,Raw,2008,,WI,55.3,-45,-45,-45,,27.5,30,-32.5,30,67.5,75,80,80,,,
1,Lucca Lewis,F,SBD,FR-JV,60,Raw,2007,,TX,57.7,102.5,112.5,120,120,62.5,67.5,70,70,120,132.5,140,140,330,,
2,Maria Marti,F,SBD,FR-JV,60,Raw,2006,,WI,57.25,85,92.5,97.5,97.5,45,50,-55,50,100,112.5,120,120,267.5,,
3,Tara Wenzel,F,SBD,FR-JV,60,Raw,2007,,WI,58.85,85,92.5,-95,92.5,45,47.5,50,50,115,120,-127.5,120,262.5,,
4,Karalyn Woodford,F,SBD,FR-JV,60,Raw,2007,Elk Mound High School Powerlifting,WI,59.1,72.5,75,77.5,77.5,37.5,40,-42.5,40,100,107.5,-115,107.5,225,,
5,Emma Mancine,F,SBD,FR-JV,60,Raw,2008,,ME,59.35,67.5,75,-82.5,75,30,35,-37.5,35,95,-105,-105,95,205,,
6,Kiwi Barr,F,SBD,FR-JV,60,Raw,2007,,WI,59.3,67.5,75,-80,75,30,32.5,-35,32.5,87.5,-95,-97.5,87.5,195,,
7,Avery Baumann,F,SBD,FR-JV,60,Raw,2007,,WI,59.95,-65,65,-67.5,65,25,27.5,-30,27.5,72.5,80,100,100,192.5,,
8,Jenna Jo Jensen,F,SBD,FR-JV,60,Raw,2008,,KS,59.4,62.5,65,70,70,32.5,35,37.5,37.5,75,77.5,82.5,82.5,190,,
9,Cristal Sandoval Lopez,F,SBD,FR-JV,60,Raw,2008,,WI,58.8,-60,-60,60,60,25,-30,30,30,60,-67.5,72.5,72.5,162.5,,
DQ,Lydia Schaal,F,SBD,FR-JV,60,Raw,2007,,WI,59.25,82.5,87.5,92.5,92.5,45,-50,50,50,-102.5,-102.5,-102.5,,,,
1,Kyleigh Randall,F,SBD,FR-JV,75,Raw,2007,,MI,73.85,-92.5,92.5,107.5,107.5,45,50,-52.5,50,110,117.5,122.5,122.5,280,,
2,Lillian Kotila,F,SBD,FR-JV,75,Raw,2007,Troy Athens Powerlifting,MI,71.9,92.5,100,105,105,-50,52.5,-55,52.5,-110,110,120,120,277.5,,
3,Elizabeth O'Malley,F,SBD,FR-JV,75,Raw,2008,,MN,67.75,95,100,105,105,52.5,55,-57.5,55,95,105,110,110,270,,
4,Caitlin Herhold,F,SBD,FR-JV,75,Raw,2007,,GA,72.75,90,95,100,100,42.5,-45,45,45,97.5,102.5,105,105,250,,
1,Addyson Neumann,F,SBD,FR-JV,90,Raw,2006,,WI,83.3,90,100,-105,100,37.5,40,42.5,42.5,115,122.5,127.5,127.5,270,,
2,Chloe Moore,F,SBD,FR-JV,90,Raw,2007,,WI,88.35,95,97.5,100,100,52.5,57.5,-60,57.5,105,107.5,112.5,112.5,270,,
1,Jenna Spence,F,SBD,FR-JV,100,Raw,2007,,MI,93.45,117.5,137.5,-152.5,137.5,60,67.5,75,75,135,160,167.5,167.5,380,,
2,Jenna Bjorge,F,SBD,FR-JV,100,Raw,2007,,WI,98.85,130,140,-145,140,65,70,-72.5,70,147.5,155,167.5,167.5,377.5,,
3,Tiffany Hensley,F,SBD,FR-JV,100,Raw,2007,,WI,94.45,110,112.5,117.5,117.5,47.5,50,-52.5,50,117.5,142.5,-180,142.5,310,,
DQ,Addisyn Suhsen,F,SBD,FR-JV,100,Raw,2006,,WI,92,82.5,87.5,97.5,97.5,45,52.5,-60,52.5,-120,-120,-120,,,,
1,Daytona Hensley,F,SBD,FR-JV,100+,Raw,2007,,WI,108.85,-165,-165,165,165,60,65,-72.5,65,102.5,107.5,115,115,345,,
2,Selah Sedlacek,F,SBD,FR-JV,100+,Raw,2007,,MN,137.4,85,-95,95,95,65,70,-72.5,70,-110,110,115,115,280,,
3,Chloe Borchert,F,SBD,FR-JV,100+,Raw,2007,,WI,112.1,77.5,82.5,90,90,42.5,50,55,55,120,125,127.5,127.5,272.5,,
1,Mikayla Dolina,F,SBD,FR-JV,67.5,Raw,2007,,VA,65.75,110,125,-132.5,125,60,65,67.5,67.5,120,127.5,135,135,327.5,,
2,Isabelle Jobin,F,SBD,FR-JV,67.5,Raw,2006,,NH,67.5,100,110,117.5,117.5,52.5,-60,-60,52.5,-115,-122.5,127.5,127.5,297.5,,
3,Madison Shelton,F,SBD,FR-JV,67.5,Raw,2007,,NC,66.15,92.5,102.5,-112.5,102.5,52.5,57.5,62.5,62.5,112.5,122.5,-130,122.5,287.5,,
4,Ava Schueller,F,SBD,FR-JV,67.5,Raw,2007,,WI,67.5,-82.5,82.5,90,90,47.5,-52.5,-52.5,47.5,105,112.5,117.5,117.5,255,,
5,Celeste Hallett,F,SBD,FR-JV,67.5,Raw,2008,,MI,62.3,85,-92.5,-92.5,85,42.5,47.5,-50,47.5,107.5,117.5,-122.5,117.5,250,,
6,Caitlin Grice,F,SBD,FR-JV,67.5,Raw,2008,,GA,60.15,80,85,-92.5,85,37.5,-40,40,40,105,112.5,120,120,245,,
7,Piper Wojcik,F,SBD,FR-JV,67.5,Raw,2007,,ME,65.95,-77.5,77.5,-87.5,77.5,35,37.5,42.5,42.5,92.5,102.5,112.5,112.5,232.5,,
8,Elayna Noonan,F,SBD,FR-JV,67.5,Raw,2006,,WI,63.8,70,-77.5,-77.5,70,37.5,40,-42.5,40,82.5,95,102.5,102.5,212.5,,
9,Hannah Pirk,F,SBD,FR-JV,67.5,Raw,2007,,WI,67.1,57.5,-62.5,-62.5,57.5,-32.5,32.5,37.5,37.5,77.5,-90,90,90,185,,
10,Brenda Krut,F,SBD,FR-JV,67.5,Raw,2007,,PA,63.45,60,65,-70,65,30,40,-42.5,40,70,75,-82.5,75,180,,
1,Daphne Peterson,F,SBD,FR-JV,82.5,Raw,2007,,WI,80.2,107.5,115,120,120,50,52.5,55,55,115,122.5,125,125,300,,
2,Alexis Joachim,F,SBD,FR-JV,82.5,Raw,2006,Elk Mound High School Powerlifting,WI,80.5,110,-115,115,115,-50,50,-52.5,50,122.5,-130,-137.5,122.5,287.5,,
3,Aracely Del Aguila,F,SBD,FR-JV,82.5,Raw,2007,,WI,81.3,112.5,-117.5,-120,112.5,47.5,-52.5,52.5,52.5,112.5,115,-125,115,280,,
4,Savannah Marvin,F,SBD,FR-JV,82.5,Raw,2007,,WI,77.55,60,67.5,70,70,37.5,-40,40,40,-100,100,107.5,107.5,217.5,,
5,Alexandra Watt,F,SBD,FR-JV,82.5,Raw,2007,,NY,78.8,45,52.5,57.5,57.5,42.5,47.5,50,50,85,97.5,-107.5,97.5,205,,
6,Gretchen Holm,F,SBD,FR-JV,82.5,Raw,2008,,MN,81.3,60,-65,65,65,45,-50,50,50,90,-97.5,-100,90,205,,
1,Rylee Ehlke,F,SBD,FR-V,44,Raw,2008,Neenah Powerlifting,WI,43.3,60,65,70,70,32.5,35,-37.5,35,95,102.5,105,105,210,,
2,Kianna Nakaoka,F,SBD,FR-V,44,Raw,2006,JFK High School Powerlifting Club,CA,43.6,57.5,60,62.5,62.5,45,47.5,-50,47.5,90,92.5,95,95,205,,
DQ,Anastasia Blom,F,SBD,FR-V,44,Raw,2005,,SD,40.15,47.5,50,-52.5,50,-25,-25,-25,,55,-57.5,-57.5,55,,,
1,Alyssa Dickens,F,SBD,FR-V,48,Raw,2006,,TX,47.9,85,87.5,-92.5,87.5,55,57.5,60,60,102.5,107.5,112.5,112.5,260,,
2,Hailey Kamphuis,F,SBD,FR-V,48,Raw,2006,,WI,47.85,80,85,90,90,42.5,47.5,-50,47.5,105,112.5,-115,112.5,250,,
3,Helena Huynh,F,SBD,FR-V,48,Raw,2005,Boston Latin Powerlifting,MA,47.05,80,85,-87.5,85,32.5,35,37.5,37.5,95,100,105,105,227.5,,
4,Anna Coates,F,SBD,FR-V,48,Raw,2006,,WI,46.1,62.5,67.5,-72.5,67.5,32.5,35,-37.5,35,72.5,85,92.5,92.5,195,,
5,Marta Jimenez,F,SBD,FR-V,48,Raw,2006,Neenah Powerlifting,WI,46.75,52.5,57.5,62.5,62.5,30,32.5,-35,32.5,82.5,87.5,95,95,190,,
6,Kazden Hossack,F,SBD,FR-V,48,Raw,2006,,WY,44.6,-47.5,50,52.5,52.5,27.5,30,-32.5,30,62.5,70,77.5,77.5,160,,
1,Abby Brewer,F,SBD,FR-V,52,Raw,2005,,KS,50.85,107.5,115,-120,115,60,62.5,65,65,110,117.5,125,125,305,,
2,Avery Covitz,F,SBD,FR-V,52,Raw,2007,,MA,51.1,95,100,107.5,107.5,42.5,45,47.5,47.5,107.5,112.5,115,115,270,,
3,Emma Donahue,F,SBD,FR-V,52,Raw,2006,Neenah Powerlifting,WI,50.6,82.5,87.5,92.5,92.5,37.5,40,42.5,42.5,110,117.5,-122.5,117.5,252.5,,
4,Carley Evers,F,SBD,FR-V,52,Raw,2005,,WI,51.3,65,-72.5,72.5,72.5,47.5,-50,-50,47.5,110,117.5,125,125,245,,
5,Ayessa Garcia,F,SBD,FR-V,52,Raw,2005,,WI,51.3,97.5,102.5,-107.5,102.5,-35,35,37.5,37.5,102.5,-107.5,-107.5,102.5,242.5,,
6,Aaliyah Moelter,F,SBD,FR-V,52,Raw,2006,,WI,51.15,80,85,-87.5,85,42.5,45,47.5,47.5,100,107.5,-115,107.5,240,,
7,Evelyn Sagor,F,SBD,FR-V,52,Raw,2006,Roseville Powerlifting,MN,51.1,67.5,72.5,-75,72.5,40,-45,-45,40,90,95,-100,95,207.5,,
1,Olivia Hofer,F,SBD,FR-V,56,Raw,2004,,SD,55.2,-107.5,117.5,125,125,-70,75,77.5,77.5,132.5,142.5,152.5,152.5,355,,
2,Kate Lincecum,F,SBD,FR-V,56,Raw,2008,Boston Latin Powerlifting,MA,54.8,-102.5,105,-112.5,105,62.5,65,-67.5,65,132.5,138,-143,138,308,,
3,Emma Bohman,F,SBD,FR-V,56,Raw,2005,,WI,54.75,-95,97.5,-107.5,97.5,47.5,52.5,-55,52.5,140,147.5,-158,147.5,297.5,,
4,Claire Bohman,F,SBD,FR-V,56,Raw,2005,,WI,53.95,92.5,95,97.5,97.5,52.5,57.5,-60,57.5,-117.5,-117.5,117.5,117.5,272.5,,
5,Neili Pike,F,SBD,FR-V,56,Raw,2006,Great Lakes Power,MI,55.1,75,82.5,-87.5,82.5,35,42.5,-45,42.5,97.5,105,115,115,240,,
6,Aina Nguyen,F,SBD,FR-V,56,Raw,2007,Boston Latin Powerlifting,MA,55.3,90,95,-100,95,42.5,45,-47.5,45,85,-90,90,90,230,,
DQ,Cecilia Chung,F,SBD,FR-V,56,Raw,2005,Troy Athens Powerlifting,MI,55.8,-122.5,-122.5,-122.5,,60,62.5,-65,62.5,130,137.5,-142.5,137.5,,,
1,Brooke Naegel,F,SBD,FR-V,60,Raw,2006,,SC,60,132.5,-137.5,137.5,137.5,82.5,88,-90,88,142.5,147.5,150,150,375.5,,
2,Greta Aberle,F,SBD,FR-V,60,Raw,2004,Winneconne High School,WI,60,130,135,137.5,137.5,65,70,72.5,72.5,147.5,157.5,-167.5,157.5,367.5,,
3,Lily Rubenstein,F,SBD,FR-V,60,Raw,2005,,FL,59.95,-130,130,-132.5,130,70,-75,-75,70,145,-155,-155,145,345,,
4,Jessica Rosalez,F,SBD,FR-V,60,Raw,2005,,TX,58.6,-107.5,107.5,110,110,55,-60,-60,55,152.5,157.5,-162.5,157.5,322.5,,
5,Sydney Hills,F,SBD,FR-V,60,Raw,2004,,IL,58.3,107.5,115,120,120,60,-62.5,-62.5,60,130,132.5,-145,132.5,312.5,,
6,Macy Smith,F,SBD,FR-V,60,Raw,2005,,MI,59.7,120,127.5,-135,127.5,52.5,-55,-55,52.5,122.5,130,-135,130,310,,
7,Ella Morenzien,F,SBD,FR-V,60,Raw,2005,,WI,60,-97.5,97.5,105,105,60,62.5,-65,62.5,127.5,132.5,137.5,137.5,305,,
8,Evangeline Hobley,F,SBD,FR-V,60,Raw,2005,Troy Athens Powerlifting,MI,59.05,-112.5,-112.5,112.5,112.5,62.5,65,-67.5,65,-115,115,122.5,122.5,300,,
9,Liliana Tasich,F,SBD,FR-V,60,Raw,2005,Troy Athens Powerlifting,MI,59.2,102.5,-107.5,-110,102.5,55,57.5,-60,57.5,127.5,137.5,-145,137.5,297.5,,
10,Madison Polzin,F,SBD,FR-V,60,Raw,2005,Great Lakes Power,MI,59.85,82.5,90,97.5,97.5,45,-50,55,55,120,130,140,140,292.5,,
11,Carly Keesler,F,SBD,FR-V,60,Raw,2005,Neenah Powerlifting,WI,58.5,102.5,110,-115,110,50,55,-57.5,55,117.5,125,-130,125,290,,
12,Jaiden Schroeder,F,SBD,FR-V,60,Raw,2005,,WI,57.3,100,105,107.5,107.5,-57.5,57.5,-62.5,57.5,105,115,120,120,285,,
13,Madyson Janichek,F,SBD,FR-V,60,Raw,2005,Neenah Powerlifting,WI,59.3,-92.5,92.5,-100,92.5,57.5,62.5,-65,62.5,-120,120,130,130,285,,
14,Nayah Murphy,F,SBD,FR-V,60,Raw,2005,,CO,60,95,102.5,105,105,45,-50,-50,45,117.5,127.5,-135,127.5,277.5,,
15,Keileigh Doll,F,SBD,FR-V,60,Raw,2006,,WI,59.1,85,87.5,-92.5,87.5,42.5,47.5,-50,47.5,130,137.5,-142.5,137.5,272.5,,
16,Litzy Morales,F,SBD,FR-V,60,Raw,2005,,NE,59.75,97.5,105,-110,105,50,-55,-55,50,107.5,117.5,-130,117.5,272.5,,
17,Morgan Wiercinski,F,SBD,FR-V,60,Raw,2005,,WI,59.9,-87.5,92.5,100,100,42.5,45,-47.5,45,97.5,107.5,115,115,260,,
18,Emma Bruder,F,SBD,FR-V,60,Raw,2005,Elk Mound High School Powerlifting,WI,58.95,80,-82.5,82.5,82.5,52.5,-55,-55,52.5,110,117.5,122.5,122.5,257.5,,
19,Carly Ramos,F,SBD,FR-V,60,Raw,2005,Boston Latin Powerlifting,MA,56.2,92.5,97.5,102.5,102.5,37.5,40,-42.5,40,107.5,112.5,-115,112.5,255,,
20,Allison Bontempo,F,SBD,FR-V,60,Raw,2005,,WI,60,97.5,-102.5,102.5,102.5,42.5,-45,45,45,100,105,-115,105,252.5,,
21,Lily Davis,F,SBD,FR-V,60,Raw,2005,,WI,59,82.5,87.5,-95,87.5,37.5,-42.5,-42.5,37.5,107.5,-117.5,117.5,117.5,242.5,,
1,Ellie Koeniguer,F,SBD,FR-V,75,Raw,2004,,MN,73.75,135,147.5,155,155,82.5,87.5,90,90,142.5,155,162.5,162.5,407.5,,
2,MaryAnn Romagna,F,SBD,FR-V,75,Raw,2004,,WI,69.65,-120,130,137.5,137.5,60,-62.5,62.5,62.5,-175,190,-197.5,190,390,,
3,Rachel Wilkie,F,SBD,FR-V,75,Raw,2005,,MI,74.3,-135,142.5,150,150,60,65,-67.5,65,152.5,160,-177.5,160,375,,
4,Julia Wells,F,SBD,FR-V,75,Raw,2005,,ME,74.4,-137.5,142.5,152.5,152.5,70,75,-77.5,75,137.5,147.5,-157.5,147.5,375,,
5,Nevaeh Noonan,F,SBD,FR-V,75,Raw,2005,,WI,68.85,120,125,-130,125,55,57.5,60,60,160,167.5,172.5,172.5,357.5,,
6,Claire Dunneback,F,SBD,FR-V,75,Raw,2006,Troy Athens Powerlifting,MI,72.55,122.5,127.5,132.5,132.5,75,-80,-80,75,137.5,145,150,150,357.5,,
7,Anneliese Farner,F,SBD,FR-V,75,Raw,2006,,WI,73.15,120,127.5,132.5,132.5,72.5,75,77.5,77.5,120,130,137.5,137.5,347.5,,
8,Morgan Harwood,F,SBD,FR-V,75,Raw,2005,Neenah Powerlifting,WI,70.05,117.5,-125,125,125,52.5,57.5,-60,57.5,145,155,-165,155,337.5,,
9,Lillian Lisko,F,SBD,FR-V,75,Raw,2005,,WI,75,-132.5,132.5,140,140,60,65,67.5,67.5,120,125,127.5,127.5,335,,
10,Tessa Forcucci,F,SBD,FR-V,75,Raw,2006,,NY,73.05,110,117.5,-122.5,117.5,65,70,-72.5,70,135,140,145,145,332.5,,
11,Cameren Moore,F,SBD,FR-V,75,Raw,2005,,TX,74.6,125,132.5,140,140,55,60,-62.5,60,115,125,130,130,330,,
12,Annika Terwilliger,F,SBD,FR-V,75,Raw,2005,,MA,72.5,105,115,120,120,60,67.5,72.5,72.5,117.5,125,135,135,327.5,,
13,Angelina Salvino,F,SBD,FR-V,75,Raw,2004,,WI,74.35,105,110,115,115,62.5,65,-70,65,135,142.5,-145,142.5,322.5,,
14,Brianna Yenter,F,SBD,FR-V,75,Raw,2005,,WI,72.8,97.5,105,-110,105,55,-60,60,60,127.5,-140,140,140,305,,
15,Ifakorede Riggins,F,SBD,FR-V,75,Raw,2005,TruBorn Strong,GA,71.05,105,110,-115,110,57.5,60,65,65,127.5,-137.5,-137.5,127.5,302.5,,
16,Lakely Kloetzke,F,SBD,FR-V,75,Raw,2005,,WI,72.8,100,105,107.5,107.5,52.5,-60,-60,52.5,115,127.5,132.5,132.5,292.5,,
17,Kierra Krause,F,SBD,FR-V,75,Raw,2005,,WI,70.8,85,95,-97.5,95,50,55,-60,55,125,135,-142.5,135,285,,
18,Greta Wright,F,SBD,FR-V,75,Raw,2005,Roseville Powerlifting,MN,74.15,87.5,92.5,97.5,97.5,52.5,-57.5,57.5,57.5,112.5,117.5,125,125,280,,
19,Josie Dingee,F,SBD,FR-V,75,Raw,2005,Roseville Powerlifting,MN,71.05,90,95,105,105,47.5,52.5,-55,52.5,102.5,110,120,120,277.5,,
20,Addison Hansen,F,SBD,FR-V,75,Raw,2006,Roseville Powerlifting,MN,74.65,87.5,95,102.5,102.5,50,-55,55,55,110,117.5,-122.5,117.5,275,,
DQ,Samya McIntosh,F,SBD,FR-V,75,Raw,2005,,IL,68.9,-115,-117.5,-117.5,,65,67.5,-70,67.5,127.5,132.5,140,140,,,
1,Grace Chatelain,F,SBD,FR-V,90,Raw,2006,,LA,87.2,177.5,185,190,190,-90,92.5,-95,92.5,147.5,160,165,165,447.5,,
2,Natasha Cruz,F,SBD,FR-V,90,Raw,2005,,TX,89.6,167.5,-180,180,180,75,80,-82.5,80,165,175,-190,175,435,,
3,Eliana Cook,F,SBD,FR-V,90,Raw,2005,,FL,87.8,-147.5,-152.5,152.5,152.5,-87.5,92.5,-95,92.5,152.5,157.5,162.5,162.5,407.5,,
4,Elianna Dyer,F,SBD,FR-V,90,Raw,2005,,DE,88.5,142.5,-150,-150,142.5,95,97.5,100,100,-147.5,152.5,-157.5,152.5,395,,
5,Mikayla Koenig,F,SBD,FR-V,90,Raw,2006,,WI,88.5,127.5,135,-142.5,135,-65,65,-70,65,157.5,167.5,175,175,375,,
6,Myah Wenzel,F,SBD,FR-V,90,Raw,2006,Neenah Powerlifting,WI,86.25,127.5,137.5,142.5,142.5,55,60,62.5,62.5,150,160,-167.5,160,365,,
7,Rachel Olshansky,F,SBD,FR-V,90,Raw,2005,,IL,88.5,110,122.5,-132.5,122.5,65,-67.5,67.5,67.5,152.5,-160,-160,152.5,342.5,,
8,Chelsey Yang,F,SBD,FR-V,90,Raw,2005,Elk Mound High School Powerlifting,WI,87.65,130,137.5,142.5,142.5,52.5,55,-57.5,55,130,137.5,142.5,142.5,340,,
9,Kylie Burch,F,SBD,FR-V,90,Raw,2006,,WI,82.95,-125,130,137.5,137.5,-45,50,-52.5,50,-132.5,137.5,142.5,142.5,330,,
10,Breslyn Sikkenga,F,SBD,FR-V,90,Raw,2005,Great Lakes Power,MI,88.4,-110,120,-127.5,120,67.5,72.5,75,75,132.5,-142.5,-147.5,132.5,327.5,,
11,Erin Perry,F,SBD,FR-V,90,Raw,2004,,WI,86.55,117.5,120,127.5,127.5,55,60,-62.5,60,122.5,137.5,-142.5,137.5,325,,
12,Ace Gniot,F,SBD,FR-V,90,Raw,2004,,WI,86.8,112.5,117.5,-122.5,117.5,60,-65,-67.5,60,132.5,-142.5,-142.5,132.5,310,,
13,Yasmin Monroy,F,SBD,FR-V,90,Raw,2005,,NE,86.85,115,125,130,130,50,-55,-55,50,120,-125,-132.5,120,300,,
14,Sarah Carlson,F,SBD,FR-V,90,Raw,2004,,WI,88.85,97.5,105,110,110,55,57.5,-60,57.5,112.5,120,127.5,127.5,295,,
DQ,Faith Bonse,F,SBD,FR-V,90,Raw,2006,,WI,86.65,107.5,117.5,130,130,-47.5,-55,-55,,127.5,132.5,-137.5,132.5,,,
1,Teagan Pahl,F,SBD,FR-V,100,Raw,2004,Elk Mound High School Powerlifting,WI,92.3,150,157.5,162.5,162.5,65,67.5,-70,67.5,182.5,187.5,-190.5,187.5,417.5,,
2,Evelyn Edenburn,F,SBD,FR-V,100,Raw,2006,,MI,100,152.5,162.5,167.5,167.5,67.5,72.5,75,75,157.5,170,175,175,417.5,,
3,Piper Alberg,F,SBD,FR-V,100,Raw,2005,Neenah Powerlifting,WI,94.65,145,155,165,165,67.5,72.5,-77.5,72.5,155,170,-175,170,407.5,,
4,Amanda Cruz Santos,F,SBD,FR-V,100,Raw,2004,,WA,99.3,142.5,150,157.5,157.5,62.5,67.5,-70,67.5,150,-157.5,-157.5,150,375,,
5,Sierra Sedlacek,F,SBD,FR-V,100,Raw,2005,Roseville Powerlifting,MN,99.85,125,132.5,137.5,137.5,70,75,80,80,142.5,150,155,155,372.5,,
6,Guadalupe Valdez,F,SBD,FR-V,100,Raw,2004,,IL,91.2,130,135,-142.5,135,-70,70,-72.5,70,145,160,165,165,370,,
7,Magdalen Patzner,F,SBD,FR-V,100,Raw,2004,,WI,100,125,130,-137.5,130,62.5,67.5,-70,67.5,137.5,142.5,-150,142.5,340,,
8,Aleyna Heffernon,F,SBD,FR-V,100,Raw,2007,Winneconne High School,WI,96.95,-105,105,112.5,112.5,45,55,-60,55,100,117.5,-132.5,117.5,285,,
1,Samantha Davis #1,F,SBD,FR-V,100+,Raw,2006,,OH,101.35,160,170,182.5,182.5,92.5,97.5,100,100,165,185,-210,185,467.5,,
2,Elizabeth Cleveland,F,SBD,FR-V,100+,Raw,2004,,WI,124.3,180,185,187.5,187.5,80,-85,85,85,180,-190,-205,180,452.5,,
3,Carly Reese,F,SBD,FR-V,100+,Raw,2005,,OR,134.7,155,-167.5,167.5,167.5,87.5,92.5,97.5,97.5,145,155,-167.5,155,420,,
4,Addy Davis,F,SBD,FR-V,100+,Raw,2005,,CO,102.85,122.5,-130,140,140,80,87.5,92.5,92.5,167.5,182.5,-192.5,182.5,415,,
5,Jasmin Martinez,F,SBD,FR-V,100+,Raw,2004,,NE,112.8,145,157.5,-165,157.5,60,65,67.5,67.5,150,162.5,170,170,395,,
6,Allison Cook,F,SBD,FR-V,100+,Raw,2005,,WI,107.75,132.5,142.5,147.5,147.5,70,-77.5,77.5,77.5,147.5,155,160,160,385,,
7,Addison Griffiths,F,SBD,FR-V,100+,Raw,2006,,WI,128,120,132.5,140,140,-77.5,80,87.5,87.5,140,147.5,-155,147.5,375,,
8,Abigail Murphy,F,SBD,FR-V,100+,Raw,2005,Elk Mound High School Powerlifting,WI,115.25,137.5,-145,-145,137.5,65,67.5,-70,67.5,140,147.5,155,155,360,,
9,Alexandria Fechter,F,SBD,FR-V,100+,Raw,2005,,WI,107.4,-110,120,125,125,60,65,-72.5,65,132.5,140,145,145,335,,
10,Aubrey Lehman,F,SBD,FR-V,100+,Raw,2006,,WI,112.7,105,110,115,115,60,62.5,-67.5,62.5,130,137.5,-142.5,137.5,315,,
11,Yaritza Sanchez-Walker,F,SBD,FR-V,100+,Raw,2005,,WI,104.15,102.5,107.5,115,115,-47.5,52.5,-55,52.5,125,135,145,145,312.5,,
1,Gennie Vitt,F,SBD,FR-V,67.5,Raw,2004,,KS,66.7,145,155,160,160,77.5,82.5,-85,82.5,140,147.5,152.5,152.5,395,,
2,Stella Tintari,F,SBD,FR-V,67.5,Raw,2006,,IN,66.7,130,140,150,150,75,77.5,-80,77.5,130,140,150,150,377.5,,
3,Hailee Crosland,F,SBD,FR-V,67.5,Raw,2006,,KS,67.5,120,-130,130,130,80,85,-87.5,85,140,150,155,155,370,,
4,Shelby Stricklin,F,SBD,FR-V,67.5,Raw,2006,,WY,61.8,115,125,130,130,65,70,72.5,72.5,112.5,125,137.5,137.5,340,,
5,Anika Ganesh,F,SBD,FR-V,67.5,Raw,2005,,NJ,65.65,107.5,110,112.5,112.5,60,62.5,-65,62.5,155,160,165,165,340,,
6,Chloe Nielsen,F,SBD,FR-V,67.5,Raw,2005,,WI,63,-110,110,117.5,117.5,57.5,-62.5,62.5,62.5,152.5,157.5,-162.5,157.5,337.5,,
7,Kaylee Palladino,F,SBD,FR-V,67.5,Raw,2005,,MA,67.05,112.5,120,125,125,57.5,60,-62.5,60,127.5,135,140,140,325,,
8,Ellie Tewell,F,SBD,FR-V,67.5,Raw,2005,Dawgs Powerlifting Club,TX,66.55,-120,130,-140,130,55,60,65,65,-120,120,-125,120,315,,
9,Nellie Dunlap,F,SBD,FR-V,67.5,Raw,2005,,WI,66.2,105,112.5,117.5,117.5,55,-62.5,-62.5,55,130,-140,140,140,312.5,,
10,Kayla Kurtz,F,SBD,FR-V,67.5,Raw,2007,,WI,65.6,107.5,112.5,117.5,117.5,52.5,55,-57.5,55,117.5,122.5,127.5,127.5,300,,
11,Samara Lanum,F,SBD,FR-V,67.5,Raw,2007,,CA,66.3,102.5,107.5,110,110,55,57.5,60,60,120,125,130,130,300,,
12,Lauren Tears,F,SBD,FR-V,67.5,Raw,2005,Neenah Powerlifting,WI,65.25,87.5,92.5,-97.5,92.5,-45,45,-47.5,45,135,142.5,150,150,287.5,,
13,Madison Gingras,F,SBD,FR-V,67.5,Raw,2004,,WI,66.9,105,107.5,112.5,112.5,57.5,62.5,65,65,102.5,-110,110,110,287.5,,
14,Emily Polcaro,F,SBD,FR-V,67.5,Raw,2006,Boston Latin Powerlifting,MA,62.8,97.5,105,112.5,112.5,45,50,-55,50,112.5,122.5,-127.5,122.5,285,,
15,Brittany Joiner,F,SBD,FR-V,67.5,Raw,2006,,GA,63.9,87.5,92.5,97.5,97.5,57.5,60,62.5,62.5,112.5,117.5,125,125,285,,
16,Emma Leonard,F,SBD,FR-V,67.5,Raw,2004,Troy Athens Powerlifting,MI,65.85,102.5,-105,105,105,52.5,55,-57.5,55,120,125,-127.5,125,285,,
17,Angela Giorgione,F,SBD,FR-V,67.5,Raw,2005,,NY,65.75,97.5,102.5,-105,102.5,-70,-70,70,70,107.5,-117.5,-117.5,107.5,280,,
18,Rachel Frank,F,SBD,FR-V,67.5,Raw,2005,Neenah Powerlifting,WI,66.9,75,82.5,87.5,87.5,42.5,45,-47.5,45,130,140,147.5,147.5,280,,
19,Emma Anderson,F,SBD,FR-V,67.5,Raw,2005,,WI,67.25,-82.5,82.5,90,90,42.5,47.5,-50,47.5,122.5,135,-142.5,135,272.5,,
20,Lydia Forney,F,SBD,FR-V,67.5,Raw,2005,,WI,66.55,82.5,87.5,-90,87.5,45,50,-52.5,50,120,125,132.5,132.5,270,,
21,Rayne Smyers,F,SBD,FR-V,67.5,Raw,2005,,WI,67.1,85,90,-92.5,90,47.5,50,52.5,52.5,107.5,117.5,127.5,127.5,270,,
22,Natalie Gilliam,F,SBD,FR-V,67.5,Raw,2006,Great Lakes Power,MI,66.45,80,87.5,92.5,92.5,45,50,55,55,120,-130,-130,120,267.5,,
23,Brooke Lee,F,SBD,FR-V,67.5,Raw,2005,Troy Athens Powerlifting,MI,66.45,87.5,-95,95,95,60,62.5,-65,62.5,102.5,110,-115,110,267.5,,
24,Anna Baribeau,F,SBD,FR-V,67.5,Raw,2007,,WI,67.5,90,95,100,100,42.5,50,-52.5,50,107.5,112.5,117.5,117.5,267.5,,
25,Emma Goyette,F,SBD,FR-V,67.5,Raw,2005,,WI,63.7,82.5,92.5,-95,92.5,45,47.5,-50,47.5,125,-135,-135,125,265,,
DQ,Anna Fisher,F,SBD,FR-V,67.5,Raw,2005,Dawgs Powerlifting Club,TX,63.6,-95,-100,-105,,45,50,-55,50,110,120,-127.5,120,,,
1,Reya Johnson,F,SBD,FR-V,82.5,Raw,2006,Troy Athens Powerlifting,MI,79.25,137.5,145,147.5,147.5,75,80,82.5,82.5,155,-165,165,165,395,,
2,Alexandra Hook,F,SBD,FR-V,82.5,Raw,2004,,SC,80.7,-147.5,-147.5,150,150,77.5,80,-87.5,80,150,152.5,157.5,157.5,387.5,,
3,Leah Warner,F,SBD,FR-V,82.5,Raw,2007,,NC,81.25,130,-135,-140,130,77.5,85,-87.5,85,145,155,165,165,380,,
4,Adrienne Mongeon,F,SBD,FR-V,82.5,Raw,2004,,MN,79.3,132.5,137.5,-142.5,137.5,80,85,87.5,87.5,127.5,137.5,140,140,365,,
5,Carson Harwood,F,SBD,FR-V,82.5,Raw,2008,Neenah Powerlifting,WI,78.8,127.5,137.5,142.5,142.5,62.5,70,72.5,72.5,130,142.5,-152.5,142.5,357.5,,
6,Jerika Harris,F,SBD,FR-V,82.5,Raw,2005,,IL,82.5,132.5,-137.5,-137.5,132.5,67.5,-72.5,-72.5,67.5,127.5,137.5,145,145,345,,
7,Madison Gill,F,SBD,FR-V,82.5,Raw,2004,,WA,79.2,132.5,-135,135,135,52.5,-57.5,-57.5,52.5,137.5,142.5,-150,142.5,330,,
8,Morgan Iverson,F,SBD,FR-V,82.5,Raw,2006,,WI,77.7,-105,107.5,112.5,112.5,60,62.5,-65,62.5,137.5,140,147.5,147.5,322.5,,
9,Olivia Olson,F,SBD,FR-V,82.5,Raw,2004,,WI,79.6,110,115,-120,115,60,62.5,65,65,142.5,-150,-150,142.5,322.5,,
10,Addison Cegielski,F,SBD,FR-V,82.5,Raw,2006,Winneconne High School,WI,81.35,105,110,117.5,117.5,42.5,-47.5,47.5,47.5,142.5,155,-157.5,155,320,,
11,Caroline Hensel,F,SBD,FR-V,82.5,Raw,2006,,WI,79.1,105,110,115,115,52.5,55,-57.5,55,125,132.5,140,140,310,,
12,Iris Harlow,F,SBD,FR-V,82.5,Raw,2006,,WI,78.05,90,97.5,102.5,102.5,50,55,-57.5,55,125,140,-147.5,140,297.5,,
13,Majka Gorka,F,SBD,FR-V,82.5,Raw,2005,,WI,80,105,107.5,112.5,112.5,47.5,52.5,-55,52.5,112.5,122.5,-137.5,122.5,287.5,,
14,Alicia Soliz,F,SBD,FR-V,82.5,Raw,2005,Team Black Powerlifting,OK,81.75,85,92.5,97.5,97.5,40,47.5,-50,47.5,100,117.5,127.5,127.5,272.5,,
1,Keegan McRoberts,M,SBD,M-JV,90,Single-ply,2007,,WI,86.45,120,130,140,140,80,87.5,92.5,92.5,130,140,145,145,377.5,,
1,Bryand Mao,M,SBD,M-V,52,Single-ply,2008,Abbeville,LA,51,117.5,132.5,140,140,80,85,-87.5,85,120,135,150,150,375,,
1,Carter Robertson,M,SBD,M-V,56,Single-ply,2006,Abbeville,LA,54.95,157.5,172.5,177.5,177.5,92.5,100,-105,100,150,167.5,177.5,177.5,455,,
2,Luke Hebert,M,SBD,M-V,56,Single-ply,2005,Abbeville,LA,55.9,122.5,132.5,-137.5,132.5,92.5,100,-107.5,100,150,165,177.5,177.5,410,,
1,Peter Nguyen #10,M,SBD,M-V,60,Single-ply,2005,Abbeville,LA,59.65,157.5,172.5,,172.5,97.5,102.5,110,110,182.5,202.5,215,215,497.5,,
1,Aiden Brown,M,SBD,M-V,75,Single-ply,2006,Abbeville,LA,74.25,180,-192.5,192.5,192.5,105,120,132.5,132.5,197.5,205,225,225,550,,
2,Connor Riehl,M,SBD,M-V,75,Single-ply,2005,,WI,74.95,190,-200,-205,190,-140,142.5,-150,142.5,190,197.5,-205,197.5,530,,
3,Noah Martinez #7,M,SBD,M-V,75,Single-ply,2005,TruBorn Strong,LA,74.4,190,-200,-200,190,105,115,-125,115,180,190,-205,190,495,,
DQ,Daigan Scarbrough,M,SBD,M-V,75,Single-ply,2005,TruBorn Strong,LA,74.65,-157.5,-157.5,-157.5,,-80,80,87.5,87.5,195,207.5,-227.5,207.5,,,
1,Jason Ingraham,M,SBD,M-V,90,Single-ply,2004,,WI,88,180,182.5,185,185,117.5,-122.5,122.5,122.5,165,-180,182.5,182.5,490,,
1,Hayden Jackson,M,SBD,M-V,100,Single-ply,2005,TruBorn Strong,LA,98.8,252.5,-262.5,280,280,150,-170,-170,150,230,237.5,-245,237.5,667.5,,
2,David Tran,M,SBD,M-V,100,Single-ply,2005,Abbeville,LA,97.35,180,197.5,-207.5,197.5,-122.5,122.5,132.5,132.5,162.5,182.5,187.5,187.5,517.5,,
1,JeRon Larry,M,SBD,M-V,110,Single-ply,2004,TruBorn Strong,LA,109.2,-240,240,-260,240,127.5,-137.5,-137.5,127.5,237.5,252.5,-265,252.5,620,,
1,Gordon Langer,M,SBD,M-V,140+,Single-ply,2004,,WI,155.7,192.5,232.5,-250,232.5,117.5,125,-135,125,205,227.5,245,245,602.5,,
1,Gavin Guilbeau,M,SBD,M-V,67.5,Single-ply,2005,,LA,66.2,177.5,190,-202.5,190,102.5,110,115,115,187.5,207.5,-217.5,207.5,512.5,,
2,Dane Gartland,M,SBD,M-V,67.5,Single-ply,2005,,LA,66.65,137.5,175,182.5,182.5,102.5,115,-125,115,152.5,170,-182.5,170,467.5,,
3,Ethan Hudson,M,SBD,M-V,67.5,Single-ply,2004,TruBorn Strong,LA,61.4,155,165,172.5,172.5,100,107.5,-110,107.5,160,170,177.5,177.5,457.5,,
4,Colby Jett,M,SBD,M-V,67.5,Single-ply,2005,TruBorn Strong,LA,67.25,155,165,-175,165,87.5,97.5,102.5,102.5,157.5,165,177.5,177.5,445,,
5,Lincoln Johnson,M,SBD,M-V,67.5,Single-ply,2006,TruBorn Strong,LA,64.5,-155,155,-167.5,155,77.5,82.5,-87.5,82.5,182.5,-195,-195,182.5,420,,
6,Leopold Tomino,M,SBD,M-V,67.5,Single-ply,2007,Abbeville,LA,65.9,125,137.5,145,145,75,85,92.5,92.5,142.5,160,-185,160,397.5,,
7,Jeffery Noel,M,SBD,M-V,67.5,Single-ply,2005,TruBorn Strong,LA,65.05,135,142.5,145,145,62.5,67.5,72.5,72.5,137.5,150,-165,150,367.5,,
1,Rocky Dufort,M,SBD,M-V,82.5,Single-ply,2005,,LA,82.4,220,237.5,-250,237.5,-190,190,207.5,207.5,202.5,222.5,227.5,227.5,672.5,,
2,Samuel Todd,M,SBD,M-V,82.5,Single-ply,2004,,WI,81.65,242.5,-257.5,257.5,257.5,152.5,-162.5,-162.5,152.5,235,-245,-262.5,235,645,,
3,Gabriele Bove,M,SBD,M-V,82.5,Single-ply,2005,,OH,81.5,205,220,-227.5,220,85,90,-92.5,90,210,225,-235,225,535,,
4,Ty Felle,M,SBD,M-V,82.5,Single-ply,2006,,WI,79.2,185,197.5,207.5,207.5,75,97.5,105,105,185,197.5,-217.5,197.5,510,,
5,Edwin Roberts,M,SBD,M-V,82.5,Single-ply,2006,,LA,76.9,157.5,172.5,185,185,115,125,-130,125,165,182.5,192.5,192.5,502.5,,
G,Dushaun LeGrand,M,SBD,MR-G,60,Raw,2006,Elk Mound High School Powerlifting,WI,56.3,100,102.5,-105,102.5,70,72.5,-75,72.5,117.5,120,122.5,122.5,297.5,,
G,Tyler Williams,M,SBD,MR-G,75,Raw,2006,,WI,74.55,-162.5,165,-177.5,165,95,100,-105,100,177.5,187.5,-200,187.5,452.5,,
G,Ty Morawski,M,SBD,MR-G,110,Raw,2005,,OH,104.5,225,235,-247.5,235,145,147.5,-160,147.5,232.5,250,262.5,262.5,645,,
G,Jack Morawetz,M,SBD,MR-G,125,Raw,2005,,WI,123.35,187.5,202.5,212.5,212.5,120,130,-132.5,130,227.5,240,-250,240,582.5,,
G,Jahir Rodriguez,M,SBD,MR-G,67.5,Raw,2008,TruBorn Strong,GA,61.9,95,102.5,115,115,60,65,72.5,72.5,130,-142.5,-145,130,317.5,,
G,Nicholas Munro-Tavormina,M,SBD,MR-G,82.5,Raw,2005,,NC,80.45,182.5,192.5,-205,192.5,100,107.5,-112.5,107.5,185,195,202.5,202.5,502.5,,
G,Tony Lalta,M,SBD,MR-G,82.5,Raw,2005,,MN,81.8,152.5,160,180,180,100,-102.5,-102.5,100,200,215,-220,215,495,,
G,Luke Chappin,M,SBD,MR-G,82.5,Raw,2006,,NC,75.9,165,-175,-175,165,87.5,-92.5,-92.5,87.5,182.5,190,-195,190,442.5,,
G,John Mock #1,M,SBD,MR-G,82.5,Raw,2006,,IL,76,142.5,152.5,-157.5,152.5,87.5,95,-97.5,95,162.5,177.5,182.5,182.5,430,,
1,Akash Gobin,M,SBD,MR-JV,52,Raw,2007,,FL,51.3,122.5,-127.5,-130,122.5,62.5,67.5,-72.5,67.5,150,-162.5,-162.5,150,340,,
2,Mason Books,M,SBD,MR-JV,52,Raw,2007,Elk Mound High School Powerlifting,WI,51.55,92.5,97.5,100,100,47.5,50,-52.5,50,115,-120,120,120,270,,
3,Andy Flores,M,SBD,MR-JV,52,Raw,2007,,WI,51.85,80,90,-100,90,47.5,50,-52.5,50,110,120,-130,120,260,,
DQ,Joseph Drake,M,SBD,MR-JV,52,Raw,2007,,SD,50.2,-87.5,92.5,-95,92.5,50,-52.5,-52.5,50,-102.5,-102.5,-102.5,,,,
1,Gabriel Fenton,M,SBD,MR-JV,56,Raw,2007,Elk Mound High School Powerlifting,WI,55.55,112.5,115,-117.5,115,52.5,55,-57.5,55,135,137.5,-142.5,137.5,307.5,,
2,Jacob Woinarowicz,M,SBD,MR-JV,56,Raw,2007,,WY,55.3,87.5,97.5,102.5,102.5,60,65,70,70,110,120,125,125,297.5,,
3,Giovanni Maccanelli,M,SBD,MR-JV,56,Raw,2007,,WI,55.95,87.5,97.5,-105,97.5,57.5,62.5,-67.5,62.5,112.5,122.5,130,130,290,,
4,Hayden Wolf,M,SBD,MR-JV,56,Raw,2006,,WI,54.8,80,85,87.5,87.5,55,62.5,-70,62.5,115,-130,130,130,280,,
5,Isaac Johnson,M,SBD,MR-JV,56,Raw,2006,,WI,53.85,77.5,82.5,90,90,62.5,65,-67.5,65,122.5,-132.5,-132.5,122.5,277.5,,
6,Brandon Manthey,M,SBD,MR-JV,56,Raw,2006,,WI,55.95,90,100,105,105,40,45,-50,45,127.5,-137.5,-137.5,127.5,277.5,,
7,Joseph Young #4,M,SBD,MR-JV,56,Raw,2007,Troy Athens Powerlifting,MI,54.5,80,-87.5,90,90,50,52.5,55,55,-112.5,-115,115,115,260,,
1,Anthony Danial,M,SBD,MR-JV,60,Raw,2007,,CO,59.6,125,132.5,-137.5,132.5,80,-87.5,-87.5,80,137.5,142.5,147.5,147.5,360,,
2,Dolcelino Buonincontro,M,SBD,MR-JV,60,Raw,2007,,IL,59.75,115,122.5,127.5,127.5,70,75,-77.5,75,120,130,137.5,137.5,340,,
3,Kevin Slechta,M,SBD,MR-JV,60,Raw,2007,,WI,59.45,110,120,-125,120,72.5,80,82.5,82.5,120,-132.5,-137.5,120,322.5,,
4,Logan Webb,M,SBD,MR-JV,60,Raw,2006,,MA,56.9,100,107.5,115,115,60,-65,65,65,120,130,-135,130,310,,
1,Chase Gravitt,M,SBD,MR-JV,75,Raw,2007,,OK,74.3,187.5,200,210.5,210.5,125,-130,130,130,232.5,245,253,253,593.5,,
2,Jude Ossian,M,SBD,MR-JV,75,Raw,2007,,IL,73.8,152.5,-160,-172.5,152.5,100,110,-117.5,110,187.5,200,207.5,207.5,470,,
3,Bradley Kozlow,M,SBD,MR-JV,75,Raw,2007,,NY,68.85,155,162.5,-167.5,162.5,-102.5,107.5,-112.5,107.5,165,182.5,192.5,192.5,462.5,,
4,Nicholas Katzman,M,SBD,MR-JV,75,Raw,2006,,WI,70.35,160,-215,-215,160,75,80,-85,80,195,200,205,205,445,,
5,David Satloff,M,SBD,MR-JV,75,Raw,2007,,MD,72.1,142.5,150,155,155,92.5,97.5,100,100,170,180,185,185,440,,
6,Declan Foster,M,SBD,MR-JV,75,Raw,2006,,MA,74,-145,145,160,160,95,100,-105,100,160,177.5,-182.5,177.5,437.5,,
7,Elijah Jones,M,SBD,MR-JV,75,Raw,2007,,CA,73,147.5,150,157.5,157.5,-75,82.5,-87.5,82.5,180,190,-210,190,430,,
8,Mitchell Haugsness,M,SBD,MR-JV,75,Raw,2007,,CO,74.2,155,-170,-172.5,155,87.5,92.5,-95,92.5,145,160,-165,160,407.5,,
9,Aiden Long,M,SBD,MR-JV,75,Raw,2008,,MN,74.6,125,135,142.5,142.5,75,77.5,-85,77.5,170,-185,-185,170,390,,
10,Cayden Brunner,M,SBD,MR-JV,75,Raw,2008,Elk Mound High School Powerlifting,WI,73.4,130,135,140,140,62.5,70,-80,70,142.5,150,-162.5,150,360,,
11,Dash Title,M,SBD,MR-JV,75,Raw,2006,Roseville Powerlifting,MN,74.4,115,122.5,-130,122.5,72.5,77.5,85,85,142.5,150,-162.5,150,357.5,,
12,Ian Jensen,M,SBD,MR-JV,75,Raw,2007,,KS,73.35,120,127.5,-137.5,127.5,60,-62.5,-70,60,155,-165,165,165,352.5,,
13,Aadesh Motwane,M,SBD,MR-JV,75,Raw,2006,,MA,74,110,115,120,120,70,-72.5,-72.5,70,150,155,-160,155,345,,
14,Caleb Bires,M,SBD,MR-JV,75,Raw,2008,,WI,71.1,97.5,107.5,112.5,112.5,60,-65,65,65,127.5,137.5,142.5,142.5,320,,
1,Keith Stroud,M,SBD,MR-JV,90,Raw,2006,,TN,89.6,197.5,215,-225.5,215,110,127.5,-137.5,127.5,202.5,225,-232.5,225,567.5,,
2,Cole Newson,M,SBD,MR-JV,90,Raw,2007,,CA,84.45,190,200,205,205,110,117.5,-122.5,117.5,222.5,230.5,237.5,237.5,560,,
3,David Syrotchen,M,SBD,MR-JV,90,Raw,2008,,TX,84.3,210,220,225,225,115,120,-125,120,212.5,-230,-230,212.5,557.5,,
4,Austen Dodd,M,SBD,MR-JV,90,Raw,2007,,TX,89.3,195,208,215.5,215.5,97.5,105,107.5,107.5,200,215,231,231,554,,
5,Ozan Kleiman,M,SBD,MR-JV,90,Raw,2007,,TX,89.75,195,205,-210,205,100,105,-107.5,105,215,227.5,-236,227.5,537.5,,
6,Kenny Nelson,M,SBD,MR-JV,90,Raw,2006,Dawgs Powerlifting Club,TX,87.6,200,215,-225,215,95,105,110,110,195,-215,-215,195,520,,
7,Elijah Burt,M,SBD,MR-JV,90,Raw,2007,Troy Athens Powerlifting,MI,82.65,150,157.5,162.5,162.5,92.5,97.5,100,100,192.5,202.5,212.5,212.5,475,,
8,Preston Smith,M,SBD,MR-JV,90,Raw,2007,Elk Mound High School Powerlifting,WI,87.85,167.5,175,185,185,-90,92.5,97.5,97.5,192.5,-212.5,-212.5,192.5,475,,
9,Owen King,M,SBD,MR-JV,90,Raw,2007,Roseville Powerlifting,MN,88.1,170,177.5,182.5,182.5,85,90,-97.5,90,172.5,180,187.5,187.5,460,,
10,Daniel Harness,M,SBD,MR-JV,90,Raw,2006,,WI,85.4,142.5,152.5,-160,152.5,102.5,110,-117.5,110,175,185,-197.5,185,447.5,,
11,Preston Owens,M,SBD,MR-JV,90,Raw,2007,,SC,86.65,-130,130,135,135,95,100,105,105,160,167.5,172.5,172.5,412.5,,
12,Marcos Muniz,M,SBD,MR-JV,90,Raw,2008,,WI,85.6,127.5,135,140,140,70,-77.5,77.5,77.5,160,170,177.5,177.5,395,,
1,Garrett Tucker,M,SBD,MR-JV,100,Raw,2007,,TX,100,180,195,205,205,120,127.5,-132.5,127.5,205,230,242.5,242.5,575,,
2,Isai Brito,M,SBD,MR-JV,100,Raw,2007,,IL,90.8,-190,192.5,-200,192.5,107.5,112.5,115,115,192.5,195,-200,195,502.5,,
3,Marshall Conkey,M,SBD,MR-JV,100,Raw,2007,,SD,97,160,170,-182.5,170,102.5,110,112.5,112.5,180,187.5,195,195,477.5,,
4,Joseph Morris,M,SBD,MR-JV,100,Raw,2007,,MA,99.5,150,160,-167.5,160,87.5,-92.5,-92.5,87.5,170,182.5,190,190,437.5,,
5,Kagan Smith,M,SBD,MR-JV,100,Raw,2007,,NY,94.75,140,-150,152.5,152.5,60,65,70,70,152.5,167.5,-182.5,167.5,390,,
DQ,Payton Froehlig,M,SBD,MR-JV,100,Raw,2008,,WI,99.9,127.5,137.5,140,140,80,87.5,-90,87.5,-147.5,-147.5,-147.5,,,,
1,Juyeop Lee,M,SBD,MR-JV,110,Raw,2006,,TX,107.9,-207.5,210,225,225,-122.5,127.5,137.5,137.5,185,200,215,215,577.5,,
2,Andres Carrillo,M,SBD,MR-JV,110,Raw,2007,Elk Mound High School Powerlifting,WI,107.55,185,195,207.5,207.5,115,-120,120,120,217.5,227.5,-238,227.5,555,,
3,Jackson Penland,M,SBD,MR-JV,110,Raw,2007,,ME,104.6,180,192.5,-200,192.5,92.5,100,105,105,190,207.5,215,215,512.5,,
4,Maxx McFarland,M,SBD,MR-JV,110,Raw,2008,,GA,106.5,192.5,197.5,-202.5,197.5,105,107.5,-115,107.5,175,185,195,195,500,,
5,Henry Kotila,M,SBD,MR-JV,110,Raw,2007,Troy Athens Powerlifting,MI,101.25,-162.5,162.5,-167.5,162.5,87.5,92.5,-95,92.5,175,190,200,200,455,,
DQ,Cody Saenz,M,SBD,MR-JV,110,Raw,2006,,TX,107.15,190,200,-212.5,200,105,112.5,117.5,117.5,-210,-210,-210,,,,
1,Robby Kedrowicz,M,SBD,MR-JV,125,Raw,2007,,WI,123.2,242.5,255,267.5,267.5,137.5,145,152.5,152.5,220,235,266,266,686,,
2,Jacob Mancu,M,SBD,MR-JV,125,Raw,2007,,IN,123.05,245,260,272.5,272.5,122.5,127.5,130,130,225,252.5,-283.5,252.5,655,,
3,Braxton Smith,M,SBD,MR-JV,125,Raw,2007,,WI,124.9,195,205,220,220,92.5,97.5,102.5,102.5,195,207.5,212.5,212.5,535,,
4,Hector Guardado,M,SBD,MR-JV,125,Raw,2006,,WI,115.25,165,175,185,185,97.5,107.5,-117.5,107.5,182.5,197.5,207.5,207.5,500,,
5,Mason Bautch,M,SBD,MR-JV,125,Raw,2008,,WI,124.4,170,195,205,205,97.5,102.5,-105,102.5,187.5,190,192.5,192.5,500,,
6,Sean McCall,M,SBD,MR-JV,125,Raw,2008,,OH,114.35,135,-145,152.5,152.5,145,152.5,158,158,145,175,-185,175,485.5,,
1,Joey Hayden,M,SBD,MR-JV,140,Raw,2008,,ME,135.15,180,192.5,202.5,202.5,70,80,-85,80,157.5,-170,175,175,457.5,,
1,Ben Lisowski,M,SBD,MR-JV,140+,Raw,2007,,WI,156.7,135,140,-150,140,-72.5,72.5,82.5,82.5,180,197.5,-220,197.5,420,,
1,Samuel Blackwell,M,SBD,MR-JV,67.5,Raw,2007,,SC,67.25,147.5,160,-162.5,160,-112.5,112.5,-125.5,112.5,177.5,192.5,197.5,197.5,470,,
2,Sterling Hershey,M,SBD,MR-JV,67.5,Raw,2007,,AL,64.5,155,165,170,170,87.5,100,105,105,160,170,180,180,455,,
3,James McElroy,M,SBD,MR-JV,67.5,Raw,2007,,WI,66.9,147.5,-157.5,160,160,-85,85,92.5,92.5,170,182.5,190,190,442.5,,
4,John Maroney,M,SBD,MR-JV,67.5,Raw,2007,,CT,65.7,140,145,150,150,-80,85,90,90,162.5,-175,182.5,182.5,422.5,,
5,Ben Tran,M,SBD,MR-JV,67.5,Raw,2008,,MA,67.35,130,140,147.5,147.5,85,-90,95,95,170,180,-202.5,180,422.5,,
6,Michael Maroney,M,SBD,MR-JV,67.5,Raw,2007,,CT,66,-145,147.5,152.5,152.5,87.5,95,-97.5,95,145,157.5,-162.5,157.5,405,,
7,Ethan Miller,M,SBD,MR-JV,67.5,Raw,2007,,OK,65,122.5,-137.5,142.5,142.5,60,75,77.5,77.5,160,180,-192.5,180,400,,
8,Tanner Pearson,M,SBD,MR-JV,67.5,Raw,2006,Roseville Powerlifting,MN,65.7,132.5,145,147.5,147.5,77.5,-82.5,85,85,140,147.5,160,160,392.5,,
9,Cody Tiedeman,M,SBD,MR-JV,67.5,Raw,2007,,MI,66.05,137.5,140,-142.5,140,72.5,77.5,-82.5,77.5,137.5,142.5,147.5,147.5,365,,
10,Josh Braker,M,SBD,MR-JV,67.5,Raw,2006,Elk Mound High School Powerlifting,WI,64.75,100,105,110,110,70,75,-80,75,150,160,172.5,172.5,357.5,,
11,Keegan Fessey,M,SBD,MR-JV,67.5,Raw,2007,,WI,66.6,115,120,125,125,65,67.5,72.5,72.5,150,-160,-160,150,347.5,,
12,Max Reichert-Boyd,M,SBD,MR-JV,67.5,Raw,2006,Roseville Powerlifting,MN,61.9,110,117.5,125,125,75,-80,-82.5,75,115,122.5,125,125,325,,
13,Jeremiah Summers,M,SBD,MR-JV,67.5,Raw,2006,,WI,66.7,-80,-82.5,82.5,82.5,70,75,-77.5,75,-100,112.5,125,125,282.5,,
14,Aydan Semb,M,SBD,MR-JV,67.5,Raw,2006,,WI,66.25,72.5,82.5,-102.5,82.5,-52.5,57.5,60,60,102.5,120,125,125,267.5,,
1,Aydin Stevens,M,SBD,MR-JV,82.5,Raw,2006,,WI,81.3,170,185,-192.5,185,112.5,122.5,130,130,205,220,-237.5,220,535,,
3,Easton Remus,M,SBD,MR-JV,82.5,Raw,2006,,MI,81.3,157.5,167.5,177.5,177.5,112.5,117.5,122.5,122.5,167.5,177.5,187.5,187.5,487.5,,
4,Zachary Lewis,M,SBD,MR-JV,82.5,Raw,2007,,CO,81.55,175,-180,182.5,182.5,85,90,95,95,182.5,187.5,195,195,472.5,,
5,Nathan Johnson,M,SBD,MR-JV,82.5,Raw,2006,,TX,81.4,150,160,170,170,95,100,105,105,180,195,-205,195,470,,
6,Caden Turnbull,M,SBD,MR-JV,82.5,Raw,2007,,TX,81.45,142.5,155,165,165,90,97.5,-105,97.5,155,165,175,175,437.5,,
7,Antonio Gall,M,SBD,MR-JV,82.5,Raw,2007,,NC,79.95,140,157.5,170,170,75,90,-97.5,90,-160,175,-182.5,175,435,,
8,Wynn Wollermann,M,SBD,MR-JV,82.5,Raw,2007,,WI,78.4,-145,145,150,150,92.5,-97.5,-97.5,92.5,152.5,-165,-165,152.5,395,,
9,Nicholas O'Neil,M,SBD,MR-JV,82.5,Raw,2008,,FL,76.15,120,-135,-135,120,90,-95,-95,90,170,182.5,-187.5,182.5,392.5,,
10,Jacob Hauser,M,SBD,MR-JV,82.5,Raw,2007,Dawgs Powerlifting Club,TX,79.15,130,140,-150,140,67.5,72.5,-75,72.5,140,150,-162.5,150,362.5,,
11,Brecken Michler,M,SBD,MR-JV,82.5,Raw,2008,,ME,76.95,127.5,137.5,-147.5,137.5,62.5,67.5,-70,67.5,130,142.5,155,155,360,,
2,Matthew Davis #18,M,SBD,MR-JV,82.5,Raw,2007,,FL,78.05,-180,180,-195,180,100,105,-110,105,200,-205,205,205,490,,
1,Indiana Gray,M,SBD,MR-V,52,Raw,2006,,MO,51.7,132.5,142.5,152.5,152.5,82.5,-90,-90,82.5,147.5,160,-177.5,160,395,,
2,Lukas Quinones,M,SBD,MR-V,52,Raw,2005,Neenah Powerlifting,WI,51.05,115,125,-130,125,75,80,82.5,82.5,135,147.5,155,155,362.5,,
3,Anthony Taracena,M,SBD,MR-V,52,Raw,2005,,NE,50.65,-117.5,117.5,125,125,55,60,-62.5,60,170,175,-177.5,175,360,,
4,Alex Duel,M,SBD,MR-V,52,Raw,2006,Winneconne High School,WI,51.75,102.5,107.5,-112.5,107.5,70,77.5,-80,77.5,142.5,152.5,-162.5,152.5,337.5,,
5,Liam Rennert,M,SBD,MR-V,52,Raw,2008,Neenah Powerlifting,WI,50.9,92.5,100,105,105,60,65,70,70,115,122.5,127.5,127.5,302.5,,
6,Gavin Boucher,M,SBD,MR-V,52,Raw,2007,,WI,51.5,102.5,-107.5,-107.5,102.5,57.5,-65,65,65,117.5,130,-137.5,130,297.5,,
7,Garrett DeLong,M,SBD,MR-V,52,Raw,2007,,WI,51.35,97.5,100,105,105,57.5,-62.5,-65,57.5,115,125,-137.5,125,287.5,,
8,Kody Kott,M,SBD,MR-V,52,Raw,2007,Troy Athens Powerlifting,MI,50.65,82.5,-90,90,90,60,62.5,-65,62.5,125,-132.5,132.5,132.5,285,,
9,David Le,M,SBD,MR-V,52,Raw,2005,,MA,50.2,90,-97.5,-97.5,90,52.5,-57.5,-57.5,52.5,97.5,105,112.5,112.5,255,,
10,Gabriel Watters,M,SBD,MR-V,52,Raw,2004,,WY,52,62.5,67.5,-72.5,67.5,52.5,60,-62.5,60,90,102.5,107.5,107.5,235,,
DQ,Leo Luckert,M,SBD,MR-V,52,Raw,2005,,WI,51.25,112.5,117.5,-120,117.5,65,70,-72.5,70,-150,-157.5,-157.5,,,,
1,Kenny Ford,M,SBD,MR-V,56,Raw,2004,,KS,55.9,140,147.5,-152.5,147.5,70,75,-80,75,185,195,207.5,207.5,430,,
2,Trey Oswald,M,SBD,MR-V,56,Raw,2005,,WI,55.5,107.5,115,120,120,-90,90,97.5,97.5,150,155,-162.5,155,372.5,,
3,William Driscoll,M,SBD,MR-V,56,Raw,2005,,WI,55.95,97.5,107.5,112.5,112.5,75,82.5,-85,82.5,150,-162.5,162.5,162.5,357.5,,
4,Evan Cardoza,M,SBD,MR-V,56,Raw,2007,Neenah Powerlifting,WI,54.1,102.5,110,115,115,57.5,60,-62.5,60,130,137.5,145,145,320,,
5,Emilio Loiurio,M,SBD,MR-V,56,Raw,2005,Troy Athens Powerlifting,MI,54.65,107.5,112.5,-115,112.5,-77.5,77.5,-80,77.5,125,130,-132.5,130,320,,
6,Kamerin Currier,M,SBD,MR-V,56,Raw,2005,,WI,54.2,90,92.5,-100,92.5,52.5,57.5,-62.5,57.5,135,140,-150,140,290,,
1,Gabe Arroyo,M,SBD,MR-V,60,Raw,2005,,WA,59.3,170,182.5,190,190,102.5,107.5,112.5,112.5,170,182.5,190,190,492.5,,
2,Nathan Henriques,M,SBD,MR-V,60,Raw,2006,,VA,59.85,145,152.5,160,160,97.5,102.5,-110,102.5,150,167.5,177.5,177.5,440,,
3,Keanu Duel,M,SBD,MR-V,60,Raw,2005,,WI,59.65,155,165,-170,165,70,75,-77.5,75,187.5,-197.5,-200,187.5,427.5,,
4,Brayden Hertik,M,SBD,MR-V,60,Raw,2007,TruBorn Strong,GA,58.4,-160,-160,160,160,82.5,90,-95,90,150,-157.5,-157.5,150,400,,
5,Ty Anderson,M,SBD,MR-V,60,Raw,2004,Neenah Powerlifting,WI,59.55,115,125,127.5,127.5,70,75,-77.5,75,175,185,195,195,397.5,,
6,Joel Barrera,M,SBD,MR-V,60,Raw,2004,,KS,59.2,-132.5,132.5,137.5,137.5,72.5,77.5,-82.5,77.5,175,-180,-180,175,390,,
7,Justin Ray,M,SBD,MR-V,60,Raw,2005,,ID,59.8,122.5,130,-135,130,97.5,-102.5,102.5,102.5,150,157.5,-162.5,157.5,390,,
8,Evan Cheuk,M,SBD,MR-V,60,Raw,2005,,IL,59.3,-137.5,137.5,-145,137.5,85,90,92.5,92.5,145,155,-160,155,385,,
9,Kevin Parada,M,SBD,MR-V,60,Raw,2004,,NE,59.75,130,-137.5,-142.5,130,62.5,67.5,70,70,157.5,162.5,170,170,370,,
10,Brendan Hickok,M,SBD,MR-V,60,Raw,2006,,TX,58.05,122.5,130,132.5,132.5,67.5,70,72.5,72.5,142.5,150,160,160,365,,
11,Alex Woodford,M,SBD,MR-V,60,Raw,2004,Elk Mound High School Powerlifting,WI,58.8,115,120,122.5,122.5,67.5,-70,-70,67.5,172.5,-177.5,-177.5,172.5,362.5,,
12,Carter Downs,M,SBD,MR-V,60,Raw,2007,Neenah Powerlifting,WI,59.45,110,117.5,125,125,62.5,-67.5,-67.5,62.5,147.5,157.5,167.5,167.5,355,,
13,Nathan Carrier,M,SBD,MR-V,60,Raw,2006,Troy Athens Powerlifting,MI,59.25,130,-135,-135,130,75,-77.5,-77.5,75,130,-137.5,-137.5,130,335,,
14,Chase Fasciano,M,SBD,MR-V,60,Raw,2007,,MA,57.9,95,102.5,105,105,65,67.5,72.5,72.5,125,132.5,137.5,137.5,315,,
15,Harry Nguyen,M,SBD,MR-V,60,Raw,2005,,MA,58.8,97.5,102.5,110,110,67.5,72.5,77.5,77.5,112.5,117.5,125,125,312.5,,
16,Zachary Schmidt,M,SBD,MR-V,60,Raw,2005,,IL,58.2,-115,115,117.5,117.5,60,62.5,-65,62.5,-125,127.5,-132.5,127.5,307.5,,
DQ,River Cram,M,SBD,MR-V,60,Raw,2005,,WI,58.35,105,-110,-110,105,-60,-62.5,-62.5,,150,-157.5,-157.5,150,,,
DQ,Braydon Binder,M,SBD,MR-V,60,Raw,2004,,KS,58.85,142.5,150,-155,150,-97.5,-102.5,-102.5,,,,,,,,
1,Matt Lee,M,SBD,MR-V,75,Raw,2005,,CA,73.8,240,250,-255,250,132.5,140,145,145,247.5,252.5,-255,252.5,647.5,,
2,Jackson Berndt,M,SBD,MR-V,75,Raw,2004,,WI,74.75,225,240,245,245,117.5,125,-130,125,250,262.5,270,270,640,,
3,Tavin Yorgason,M,SBD,MR-V,75,Raw,2004,,ID,73.85,207.5,220,225,225,125,127.5,-130,127.5,252.5,260,-272.5,260,612.5,,
4,Micah Manalo,M,SBD,MR-V,75,Raw,2004,,TX,73.35,217.5,232.5,-240,232.5,125,130,132.5,132.5,215,230,237.5,237.5,602.5,,
5,Adrian Kintzele,M,SBD,MR-V,75,Raw,2005,,TX,74.05,200,215,225,225,115,122.5,127.5,127.5,215,230,242.5,242.5,595,,
6,Bryce Boyer,M,SBD,MR-V,75,Raw,2005,,WY,74.55,202.5,210,220,220,120,130,137.5,137.5,215,235,-247.5,235,592.5,,
7,Chaedyn Villanueva,M,SBD,MR-V,75,Raw,2004,,SD,73.3,182.5,192.5,202.5,202.5,112.5,120,125,125,-255,262.5,-275,262.5,590,,
8,Tory Fasciano,M,SBD,MR-V,75,Raw,2005,,MA,73.45,200,205,215,215,122.5,-130,-130,122.5,217.5,230,237.5,237.5,575,,
9,Ryan Bautista,M,SBD,MR-V,75,Raw,2005,,TX,74,185,195,200,200,-152.5,-152.5,152.5,152.5,185,200,-205,200,552.5,,
10,Abhinav Bhimireddy,M,SBD,MR-V,75,Raw,2005,,TX,74.2,195,210,-220,210,105,-115,-115,105,237.5,-257.5,-257.5,237.5,552.5,,
12,Lj Abboud,M,SBD,MR-V,75,Raw,2005,,NJ,73.4,190,200,207.5,207.5,97.5,105,-107.5,105,200,217.5,230,230,542.5,,
13,Klayton Matthews,M,SBD,MR-V,75,Raw,2005,,WV,74.4,195,200,207.5,207.5,130,-135,-135,130,197.5,202.5,205,205,542.5,,
14,Nicholas Petrushin,M,SBD,MR-V,75,Raw,2005,,CA,72.35,195,210,215,215,105,112.5,117.5,117.5,205,-217.5,-220,205,537.5,,
15,Ezequiel Ruiz,M,SBD,MR-V,75,Raw,2006,,NE,73.7,180,187.5,192.5,192.5,110,120,-122.5,120,212.5,220,-222.5,220,532.5,,
16,Nathaniel Stahmer,M,SBD,MR-V,75,Raw,2006,,CA,73.15,177.5,187.5,200,200,115,-120,-120,115,195,205,215,215,530,,
17,Eric Jackson,M,SBD,MR-V,75,Raw,2005,,DE,73.3,185,195,205,205,85,97.5,102.5,102.5,222.5,-232.5,-232.5,222.5,530,,
18,Ryan Maluf,M,SBD,MR-V,75,Raw,2007,,CO,73.9,170,182.5,190,190,100,107.5,112.5,112.5,200,212.5,227.5,227.5,530,,
19,Anthony Moelter,M,SBD,MR-V,75,Raw,2005,,WI,73.5,175,182.5,192.5,192.5,100,105,110,110,220,-225,-225,220,522.5,,
20,Shane Jacoy,M,SBD,MR-V,75,Raw,2007,Neenah Powerlifting,WI,74.4,170,180,185,185,92.5,97.5,-102.5,97.5,222.5,240,-253.5,240,522.5,,
21,Asher Rosenbaum,M,SBD,MR-V,75,Raw,2006,,VT,73.1,165,177.5,182.5,182.5,115,120,-125,120,207.5,217.5,-225,217.5,520,,
22,Benjamin Heilig,M,SBD,MR-V,75,Raw,2005,,MI,73.5,185,195,-205,195,97.5,100,105,105,210,220,-230,220,520,,
23,Tyler Staub,M,SBD,MR-V,75,Raw,2005,,VA,74.35,170,185,-195,185,-105,110,117.5,117.5,200,217.5,-227.5,217.5,520,,
24,Jacob Song,M,SBD,MR-V,75,Raw,2007,,CA,70.95,180,-195,195,195,120,-130.5,-130.5,120,185,-200,200,200,515,,
25,Eric Chen #1,M,SBD,MR-V,75,Raw,2005,,IL,68.3,-192.5,192.5,-205,192.5,92.5,100,105,105,205,215,-227.5,215,512.5,,
26,Sky Rong,M,SBD,MR-V,75,Raw,2005,,KS,74.25,165,175,180,180,110,-120,120,120,-195,195,212.5,212.5,512.5,,
27,Idden Tsai,M,SBD,MR-V,75,Raw,2005,,IL,68.8,175,180,187.5,187.5,92.5,97.5,102.5,102.5,210,220,-222.5,220,510,,
28,Riley James,M,SBD,MR-V,75,Raw,2005,,NC,73.45,187.5,-210,-210,187.5,100,110,-120,110,195,210,-220,210,507.5,,
29,Isaiah Lloyd,M,SBD,MR-V,75,Raw,2005,,CA,71.75,162.5,172.5,-180,172.5,90,97.5,-105,97.5,222.5,235,-245,235,505,,
30,Ashton Akins,M,SBD,MR-V,75,Raw,2005,,TX,73.5,175,182.5,187.5,187.5,102.5,107.5,112.5,112.5,192.5,200,205,205,505,,
31,Caiden Soltesz,M,SBD,MR-V,75,Raw,2006,,CA,73.95,140,-142.5,160,160,105,117.5,-125,117.5,-200,215,227.5,227.5,505,,
32,Ryan Castillo,M,SBD,MR-V,75,Raw,2006,,FL,74.4,165,-180,180,180,87.5,95,-100,95,212.5,227.5,-242.5,227.5,502.5,,
33,Christopher Jaimes,M,SBD,MR-V,75,Raw,2005,,TX,72.95,170,-172.5,185,185,105,112.5,-120,112.5,200,-217.5,-222.5,200,497.5,,
34,Harrison Bigda,M,SBD,MR-V,75,Raw,2006,TruBorn Strong,GA,73.1,150,157.5,165,165,120,125,127.5,127.5,195,205,-217.5,205,497.5,,
35,Ethan Cordero,M,SBD,MR-V,75,Raw,2004,,WI,74.2,172.5,182.5,-190,182.5,95,97.5,-102.5,97.5,210,212.5,-227.5,212.5,492.5,,
36,Dominick Cady,M,SBD,MR-V,75,Raw,2006,,MD,73.95,140,150,160,160,100,105,110,110,187.5,207.5,217.5,217.5,487.5,,
37,Abraham Fielder,M,SBD,MR-V,75,Raw,2005,,IN,72.8,152.5,162.5,170,170,115,120,-125,120,170,182.5,192.5,192.5,482.5,,
38,Cody Pena,M,SBD,MR-V,75,Raw,2004,,FL,74.3,165,170,-175,170,110,112.5,-117.5,112.5,180,190,-205,190,472.5,,
39,Daegan McPhail,M,SBD,MR-V,75,Raw,2004,,KS,74.6,145,155,-165,155,97.5,100,102.5,102.5,190,200,215,215,472.5,,
40,William Davis #4,M,SBD,MR-V,75,Raw,2005,,GA,72.9,155,172.5,-182.5,172.5,90,97.5,100,100,185,190,197.5,197.5,470,,
41,Jesse Christenson,M,SBD,MR-V,75,Raw,2006,,WI,73.6,157.5,162.5,-167.5,162.5,97.5,102.5,105,105,195,202.5,-207.5,202.5,470,,
42,Daniel Makhlin,M,SBD,MR-V,75,Raw,2005,,IL,70.55,165,172.5,175,175,85,92.5,-97.5,92.5,182.5,190,197.5,197.5,465,,
43,Gabriel Prince,M,SBD,MR-V,75,Raw,2005,,WI,73.55,155,165,-175,165,92.5,100,-102.5,100,190,200,-205,200,465,,
44,Christopher Frommell,M,SBD,MR-V,75,Raw,2005,,WI,73.9,145,150,162.5,162.5,110,-115,-115,110,187.5,-192.5,-197.5,187.5,460,,
45,Jose Miguel-Andres,M,SBD,MR-V,75,Raw,2005,,NE,74.15,160,167.5,-172.5,167.5,97.5,102.5,107.5,107.5,172.5,182.5,-195,182.5,457.5,,
46,Joseph Pine,M,SBD,MR-V,75,Raw,2004,Great Lakes Power,MI,73.95,150,160,-167.5,160,95,102.5,105,105,175,190,-200,190,455,,
47,Evan Ozenberger,M,SBD,MR-V,75,Raw,2005,,TX,71.75,147.5,160,-170,160,95,102.5,-107.5,102.5,175,190,-202.5,190,452.5,,
49,Caleb Ramirez,M,SBD,MR-V,75,Raw,2005,Great Lakes Power,MI,72.7,140,152.5,-162.5,152.5,92.5,100,102.5,102.5,180,195,-210,195,450,,
50,Grant Hendrix,M,SBD,MR-V,75,Raw,2005,Team Black Powerlifting,OK,73.3,-172.5,172.5,-187.5,172.5,85,95,100,100,167.5,177.5,-182.5,177.5,450,,
51,Sampson Affeldt,M,SBD,MR-V,75,Raw,2005,,WI,73.65,160,167.5,172.5,172.5,80,85,-90,85,185,192.5,-197.5,192.5,450,,
52,Conlan Kjar,M,SBD,MR-V,75,Raw,2004,,NE,73.7,140,150,155,155,85,90,-97.5,90,-180,180,205,205,450,,
53,Abram Ramos,M,SBD,MR-V,75,Raw,2005,,IL,72.8,145,-150,-150,145,102.5,107.5,-110,107.5,187.5,195,-200,195,447.5,,
54,Jackson Hengst,M,SBD,MR-V,75,Raw,2006,,CO,73.35,155,165,-175,165,95,102.5,-107.5,102.5,170,180,-190,180,447.5,,
55,Ashton Pike,M,SBD,MR-V,75,Raw,2004,,WI,74.6,155,165,170,170,100,107.5,-112.5,107.5,165,170,-177.5,170,447.5,,
56,Isaac Estrada,M,SBD,MR-V,75,Raw,2005,,IL,72.9,152.5,160,-165,160,95,-100,-100,95,175,-190,190,190,445,,
57,Mark John Deniega,M,SBD,MR-V,75,Raw,2004,,IL,72.75,160,165,-177.5,165,90,-92.5,-92.5,90,170,180,187.5,187.5,442.5,,
58,Austin Vance,M,SBD,MR-V,75,Raw,2004,,RI,73.25,155,160,-162.5,160,90,92.5,-100,92.5,175,185,190,190,442.5,,
59,Pierson Delp,M,SBD,MR-V,75,Raw,2006,TruBorn Strong,GA,72.75,137.5,142.5,147.5,147.5,87.5,92.5,97.5,97.5,195,-207.5,-210,195,440,,
60,Ashrith Krishnam,M,SBD,MR-V,75,Raw,2004,,CA,68.2,140,150,152.5,152.5,75,-82.5,85,85,182.5,192.5,-197.5,192.5,430,,
61,Jack Nelson,M,SBD,MR-V,75,Raw,2004,,WI,73.15,137.5,-147.5,147.5,147.5,92.5,97.5,-102.5,97.5,180,-190,-190,180,425,,
62,Prestin Brunette,M,SBD,MR-V,75,Raw,2004,,WI,70.95,135,-140,-140,135,87.5,-90,-90,87.5,-200,200,-205,200,422.5,,
63,Daniel Hurley,M,SBD,MR-V,75,Raw,2005,,GA,71.55,130,140,150,150,85,90,92.5,92.5,165,172.5,-180,172.5,415,,
64,Dominic Roehl,M,SBD,MR-V,75,Raw,2006,Troy Athens Powerlifting,MI,71.55,137.5,-142.5,-142.5,137.5,87.5,90,92.5,92.5,170,-177.5,-177.5,170,400,,
65,Oliver Thor Begali,M,SBD,MR-V,75,Raw,2005,,GA,72.15,140,-152.5,-157.5,140,85,90,95,95,165,-167.5,-172.5,165,400,,
66,Zackery Brewer,M,SBD,MR-V,75,Raw,2005,,WY,69.7,120,137.5,-142.5,137.5,75,82.5,-90,82.5,-155,155,-180,155,375,,
DQ,Chase Halstead,M,SBD,MR-V,75,Raw,2004,,NC,72.55,232.5,-245,-245,232.5,-137.5,-137.5,-137.5,,230,240,-252.5,240,,,
48,Lucas Logan,M,SBD,MR-V,75,Raw,2005,,GA,73.25,155,165,175,175,97.5,-102.5,-102.5,97.5,160,170,180,180,452.5,,
11,Ethan Mauro,M,SBD,MR-V,75,Raw,2004,,VA,74.8,170,185,195,195,105,112.5,117.5,117.5,220,240,-260,240,552.5,,
1,Ben Anhalt,M,SBD,MR-V,90,Raw,2004,,WI,89.3,215,230,-235,230,132.5,137.5,-140,137.5,257.5,270,280,280,647.5,,
2,Reed Gizinski,M,SBD,MR-V,90,Raw,2005,,MN,89.35,215,220,227.5,227.5,135,142.5,147.5,147.5,250,272.5,-280,272.5,647.5,,
3,Jack Kadnar,M,SBD,MR-V,90,Raw,2004,,NC,88.25,230,-245,-245,230,150,155,-160,155,-230,240,247.5,247.5,632.5,,
4,Terrence McCrae,M,SBD,MR-V,90,Raw,2006,,GA,87.3,-220,220,-227.5,220,147.5,152.5,-157.5,152.5,235,240,250,250,622.5,,
5,Dominic Corrente,M,SBD,MR-V,90,Raw,2004,Neenah Powerlifting,WI,87.05,210,-220,220,220,122.5,130,132.5,132.5,240,252.5,-260,252.5,605,,
6,Sam Sellers,M,SBD,MR-V,90,Raw,2004,,IL,88.25,185,190,215,215,105,115,117.5,117.5,260,272.5,-280,272.5,605,,
7,Johnpaul Johnson,M,SBD,MR-V,90,Raw,2005,,NE,89.1,207.5,215,-220,215,127.5,-135,135,135,227.5,245,-260,245,595,,
8,Gabriel Lindsey,M,SBD,MR-V,90,Raw,2004,,OH,89.3,207.5,217.5,-222.5,217.5,125,132.5,-137.5,132.5,225,232.5,242.5,242.5,592.5,,
9,Declan Harvison,M,SBD,MR-V,90,Raw,2006,,SC,89.5,205,-215,-215,205,-135,135,-137.5,135,235,240,245,245,585,,
10,Stuart Cowan #2,M,SBD,MR-V,90,Raw,2004,,NE,88.15,200,210,-215,210,130,135,140,140,220,225,230,230,580,,
11,Logan Allaire,M,SBD,MR-V,90,Raw,2006,,ME,89.4,222.5,235,240,240,117.5,125,-127.5,125,197.5,210,215,215,580,,
12,Eli Bickel,M,SBD,MR-V,90,Raw,2006,,CO,89.4,-190,190,-195,190,-150,150,-155,150,225,240,-260,240,580,,
13,Adrian Rapier,M,SBD,MR-V,90,Raw,2006,,TX,87.85,200,210,220,220,107.5,112.5,115,115,-225,225,242.5,242.5,577.5,,
14,Nicholas Farvour,M,SBD,MR-V,90,Raw,2005,,WI,88.7,190,200,205,205,115,120,-125,120,235,250,-255,250,575,,
15,Giacomo Ferrone,M,SBD,MR-V,90,Raw,2005,,NJ,88,205,217.5,-227.5,217.5,132.5,137.5,-142.5,137.5,205,212.5,217.5,217.5,572.5,,
16,Benjamin Haberl,M,SBD,MR-V,90,Raw,2006,,NJ,86.25,200,212.5,-220,212.5,122.5,130,-137.5,130,212.5,-227.5,227.5,227.5,570,,
17,Colton Christensen,M,SBD,MR-V,90,Raw,2006,,WI,86.35,192.5,202.5,210,210,112.5,125,130,130,225,230,-235,230,570,,
18,Patrick Downs,M,SBD,MR-V,90,Raw,2006,,WI,89.85,200,215,227.5,227.5,110,-117.5,-130,110,200,217.5,227.5,227.5,565,,
19,Freddy Wolf,M,SBD,MR-V,90,Raw,2004,,MN,87.05,205,220,-227.5,220,100,105,-110,105,205,220,227.5,227.5,552.5,,
20,Joseph Ortega,M,SBD,MR-V,90,Raw,2006,,IL,86.8,167.5,-177.5,177.5,177.5,110,117.5,122.5,122.5,215,230,240,240,540,,
21,Paul Kundert,M,SBD,MR-V,90,Raw,2005,,WI,86.95,187.5,-200,-200,187.5,105,112.5,-115,112.5,235,-242.5,-242.5,235,535,,
22,Eric Olave,M,SBD,MR-V,90,Raw,2006,,WI,87.9,185,192.5,-197.5,192.5,100,107.5,115,115,200,212.5,227.5,227.5,535,,
23,William Anderson,M,SBD,MR-V,90,Raw,2004,,MA,86.45,182.5,192.5,200,200,107.5,112.5,120,120,200,210,-227.5,210,530,,
24,Tanner Blum,M,SBD,MR-V,90,Raw,2004,,PA,88.15,177.5,187.5,197.5,197.5,107.5,115,120,120,197.5,210,-227.5,210,527.5,,
25,Itzcoatl Aguilar,M,SBD,MR-V,90,Raw,2006,,IL,89.65,205,-215,215,215,105,110,112.5,112.5,190,200,-210,200,527.5,,
26,John Schultz,M,SBD,MR-V,90,Raw,2005,,WI,87.95,170,180,-192.5,180,102.5,107.5,-112.5,107.5,212.5,220,230,230,517.5,,
27,Tyler Sundquist,M,SBD,MR-V,90,Raw,2005,,NE,87.4,170,180,-190,180,97.5,102.5,105,105,220,230,,230,515,,
28,Collin Albrecht,M,SBD,MR-V,90,Raw,2005,Winneconne High School,WI,88.45,182.5,-187.5,-187.5,182.5,102.5,107.5,112.5,112.5,185,192.5,200,200,495,,
29,Mitchell Lehman,M,SBD,MR-V,90,Raw,2004,Winneconne High School,WI,87.5,167.5,177.5,182.5,182.5,85,90,-92.5,90,212.5,220,-227.5,220,492.5,,
30,Preston Guyette,M,SBD,MR-V,90,Raw,2006,,WI,88.35,167.5,177.5,-185,177.5,110,117.5,-120,117.5,175,187.5,-192.5,187.5,482.5,,
31,Brady Porter,M,SBD,MR-V,90,Raw,2006,Troy Athens Powerlifting,MI,86.7,165,170,-180,170,122.5,-127.5,-127.5,122.5,-177.5,182.5,-190,182.5,475,,
DQ,Hudson Hill,M,SBD,MR-V,90,Raw,2005,,OK,87.35,252.5,-270.5,-270.5,252.5,145,152.5,-160,152.5,-250,-250,-250,,,,
DQ,Andrew Lofland,M,SBD,MR-V,90,Raw,2005,,DE,87.9,-225,225,-245,225,157.5,-160,-160,157.5,270,285,290,290,,,
DQ,Brayden Haydel,M,SBD,MR-V,90,Raw,2004,,LA,89.05,-225,-230,-230,,-135,-135,-135,,-232.5,-232.5,-232.5,,,,
DQ,Jakweli Gist,M,SBD,MR-V,90,Raw,2005,,MO,89.4,-230,,,,-150,,,,-230,,,,,,
1,Mason Mitchell,M,SBD,MR-V,100,Raw,2004,,WI,98.1,250,265,-272.5,265,182.5,192.5,197.5,197.5,290,297.5,302.5,302.5,765,,
2,Tyler Keller,M,SBD,MR-V,100,Raw,2005,,LA,99.15,265,285,-287.5,285,145,157.5,160,160,310,-325.5,-325.5,310,755,,
3,Owen Ostrowski,M,SBD,MR-V,100,Raw,2005,,PA,98.5,252.5,267.5,275,275,145,152.5,157.5,157.5,290,310,-333,310,742.5,,
4,Briley Kick,M,SBD,MR-V,100,Raw,2005,,SD,97.6,-247.5,260,275,275,147.5,162.5,-172.5,162.5,-242.5,255,275,275,712.5,,
5,Maximus Dhabalt,M,SBD,MR-V,100,Raw,2005,,IA,99.85,235,250,265,265,170,180,185.5,185.5,245,-260,260,260,710.5,,
6,Elias Mank,M,SBD,MR-V,100,Raw,2005,,AK,97.2,207.5,225,237.5,237.5,105,112.5,120,120,265,285,-300,285,642.5,,
7,Owen Haseleu,M,SBD,MR-V,100,Raw,2005,,WI,95.8,232.5,-242.5,-252.5,232.5,152.5,160,165,165,215,227.5,-235,227.5,625,,
8,Rowen Ibanez,M,SBD,MR-V,100,Raw,2006,,TX,98.2,225,235,242.5,242.5,132.5,137.5,142.5,142.5,222.5,230,-240,230,615,,
9,Terrin Howard,M,SBD,MR-V,100,Raw,2005,,CO,98.65,225,-240,-242.5,225,137.5,142.5,-147.5,142.5,232.5,235,247.5,247.5,615,,
10,Derek Dunham,M,SBD,MR-V,100,Raw,2005,,OH,98.35,215,-227.5,227.5,227.5,135,142.5,-147.5,142.5,227.5,235,240,240,610,,
11,Tate Hansard,M,SBD,MR-V,100,Raw,2005,TruBorn Strong,GA,97.05,215,225,235,235,145,147.5,150,150,217.5,-227.5,-232.5,217.5,602.5,,
12,Cade Deal,M,SBD,MR-V,100,Raw,2004,,WI,93.05,-210,215,-227.5,215,127.5,132.5,137.5,137.5,220,232.5,-240,232.5,585,,
13,Donte Lester,M,SBD,MR-V,100,Raw,2005,Great Lakes Power,MI,96.23,177.5,190,202.5,202.5,-122.5,122.5,127.5,127.5,200,217.5,240,240,570,,
14,Chris Cornetta,M,SBD,MR-V,100,Raw,2005,,NJ,98.65,175,185,-195,185,125,-132.5,132.5,132.5,215,230,240,240,557.5,,
15,Taj Grewal,M,SBD,MR-V,100,Raw,2006,,NY,91.5,-185,185,197.5,197.5,110,120,-127.5,120,220,230,-232.5,230,547.5,,
16,Lance Kurz,M,SBD,MR-V,100,Raw,2007,,WI,99.95,160,172.5,190,190,100,107.5,110,110,225,247.5,-255,247.5,547.5,,
17,Vincent Joubert-Stenzel,M,SBD,MR-V,100,Raw,2005,,NC,99.95,-197.5,200,-205,200,122.5,130,-132.5,130,207.5,215,-220,215,545,,
18,Nicola Destefano,M,SBD,MR-V,100,Raw,2005,,NJ,94.2,177.5,187.5,197.5,197.5,100,-110,,100,220,230,240,240,537.5,,
19,Logan Boston,M,SBD,MR-V,100,Raw,2004,,MN,97.95,175,185,-190,185,122.5,-125,-125,122.5,215,230,-242.5,230,537.5,,
20,Rex Polly,M,SBD,MR-V,100,Raw,2005,,GA,95.8,177.5,187.5,192.5,192.5,130,137.5,142.5,142.5,185,200,-212.5,200,535,,
21,Brayden Sandstrom,M,SBD,MR-V,100,Raw,2005,,WI,96.9,190,200,-207.5,200,110,-117.5,-117.5,110,212.5,222.5,-232.5,222.5,532.5,,
22,Sam Scheer,M,SBD,MR-V,100,Raw,2006,Neenah Powerlifting,WI,98.1,180,190,200,200,115,120,-125,120,195,205,-212.5,205,525,,
23,Cristopf Atkinson,M,SBD,MR-V,100,Raw,2006,,WY,99.75,180,197.5,-202.5,197.5,102.5,-117.5,-117.5,102.5,185,-202.5,-202.5,185,485,,
DQ,Preston Goff,M,SBD,MR-V,100,Raw,2004,,MI,96,197.5,207.5,-220,207.5,-132.5,-142.5,-142.5,,-227.5,227.5,242.5,242.5,,,
DQ,Gabe Gould,M,SBD,MR-V,100,Raw,2004,,WY,98.6,-192.5,192.5,-200,192.5,115,-122.5,-122.5,115,-210,-210,-210,,,,
1,Francis O'Malley,M,SBD,MR-V,110,Raw,2005,,MN,103.5,-237.5,247.5,255,255,155,180,185,185,247.5,270,287.5,287.5,727.5,,
2,Bryce Ruland,M,SBD,MR-V,110,Raw,2006,,WI,107.65,240,255,-262.5,255,152.5,160,-165,160,272.5,285,-315,285,700,,
3,Blake Wendt,M,SBD,MR-V,110,Raw,2006,,IL,108.15,262.5,-275,-275,262.5,165,175,-180,175,255,-275,-280,255,692.5,,
4,Gabe McNeill,M,SBD,MR-V,110,Raw,2006,,NC,105.9,222.5,235,245,245,132.5,142.5,-150,142.5,260,275,285,285,672.5,,
5,Jude Kozel,M,SBD,MR-V,110,Raw,2005,,VA,108.95,210,222.5,-232.5,222.5,152.5,157.5,-160,157.5,252.5,270,287.5,287.5,667.5,,
6,Robert Schiff,M,SBD,MR-V,110,Raw,2004,,PA,103.65,232.5,242.5,247.5,247.5,147.5,157.5,-165,157.5,245,260,-265,260,665,,
7,Reggie Kloehn,M,SBD,MR-V,110,Raw,2006,,WI,102.55,230,245,-260,245,127.5,135,-145,135,230,245,-272.5,245,625,,
8,Bryan Le,M,SBD,MR-V,110,Raw,2004,,SC,104.55,-225,230,-242.5,230,132.5,140,-147.5,140,232.5,235,255,255,625,,
9,Jayden Meyer,M,SBD,MR-V,110,Raw,2006,,WI,101,187.5,195,200,200,105,110,-115,110,247.5,-255,255,255,565,,
10,Jesus Camunez,M,SBD,MR-V,110,Raw,2005,,CO,108.15,180,185,197.5,197.5,130,132.5,-140,132.5,215,220,230,230,560,,
11,Steven Aderhold,M,SBD,MR-V,110,Raw,2006,,TX,110,-210,210,220,220,110,117.5,120,120,190,-200,202.5,202.5,542.5,,
12,Case Balke,M,SBD,MR-V,110,Raw,2004,,WI,108.5,200,212.5,-227.5,212.5,115,120,-122.5,120,195,-200,200,200,532.5,,
13,Caden Jones,M,SBD,MR-V,110,Raw,2006,,OH,102.85,190,-197.5,-197.5,190,117.5,122.5,125,125,195,205,212.5,212.5,527.5,,
14,Aidan Schlueter,M,SBD,MR-V,110,Raw,2005,,WI,103.5,170,185,-200,185,100,110,-112.5,110,220,230,-240,230,525,,
15,Kobe Stinson,M,SBD,MR-V,110,Raw,2005,,WI,107.35,205,-215,-215,205,-115,115,-117.5,115,182.5,-187.5,-187.5,182.5,502.5,,
16,Garrik Block,M,SBD,MR-V,110,Raw,2007,,WI,105.6,170,-185,-200,170,102.5,-112.5,-112.5,102.5,225,-245,-245,225,497.5,,
DQ,Zachary Morales,M,SBD,MR-V,110,Raw,2005,,TX,107.05,-212.5,-225,-225,,125,132.5,135,135,227.5,230,240,240,,,
1,Eleuterio Montalvo,M,SBD,MR-V,125,Raw,2004,,CA,124.1,300,320.5,-335.5,320.5,207.5,217.5,-220,217.5,290,310,330.5,330.5,868.5,,
2,Brandon Taylor #1,M,SBD,MR-V,125,Raw,2005,,MS,119.45,-267.5,272.5,-285,272.5,165,172.5,-177.5,172.5,265,-272.5,-272.5,265,710,,
3,Elias Diaz,M,SBD,MR-V,125,Raw,2006,,WI,123.1,240,265,-275,265,125,132.5,-135,132.5,220,232.5,245,245,642.5,,
4,Payton Roder,M,SBD,MR-V,125,Raw,2005,,WI,114.45,222.5,-235,237.5,237.5,127.5,137.5,-142.5,137.5,245,260,-267.5,260,635,,
5,Wyatt Stellrecht,M,SBD,MR-V,125,Raw,2006,,WI,123.6,250,-260,-260,250,130,137.5,-145,137.5,232.5,-242.5,-242.5,232.5,620,,
6,Steven Valera,M,SBD,MR-V,125,Raw,2005,,TX,124.2,200,210,215,215,-155,155,-157.5,155,220,235,-252.5,235,605,,
7,Wyatt Christian,M,SBD,MR-V,125,Raw,2005,,WI,120.15,195,202.5,-217.5,202.5,117.5,125,130,130,232.5,240,250,250,582.5,,
8,Joshua Claussen,M,SBD,MR-V,125,Raw,2005,Great Lakes Power,MI,123.3,202.5,-217.5,222.5,222.5,127.5,135,142.5,142.5,200,217.5,-240,217.5,582.5,,
9,Chris Lavasseur,M,SBD,MR-V,125,Raw,2005,,WI,122.5,187.5,200,-210,200,112.5,120,122.5,122.5,205,217.5,227.5,227.5,550,,
10,Mark Solberg,M,SBD,MR-V,125,Raw,2004,,WI,118.55,182.5,195,202.5,202.5,107.5,110,115,115,210,-225,-225,210,527.5,,
11,Seth Bjorge,M,SBD,MR-V,125,Raw,2005,,WI,121.45,182.5,187.5,-195,187.5,112.5,-117.5,117.5,117.5,-220,220,-225,220,525,,
12,Dylyn Hiitola,M,SBD,MR-V,125,Raw,2005,,WI,113.9,195,-197.5,200,200,107.5,115,-125,115,182.5,192.5,-200,192.5,507.5,,
1,Will Peterson,M,SBD,MR-V,140,Raw,2004,,NE,128.9,242.5,252.5,260,260,155,160,-165,160,252.5,267.5,-272.5,267.5,687.5,,
2,Malachi Housh,M,SBD,MR-V,140,Raw,2006,,MO,129.75,288,-302.5,-302.5,288,125,130,135,135,227.5,245,257.5,257.5,680.5,,
3,Austin Spangler,M,SBD,MR-V,140,Raw,2005,Team Black Powerlifting,OK,127.75,260,275,-280,275,120,132.5,135,135,237.5,-245,-257.5,237.5,647.5,,
1,Brayden Lata,M,SBD,MR-V,140+,Raw,2004,,OH,144.5,287.5,292.5,300,300,172.5,-182.5,-182.5,172.5,280,287.5,-292.5,287.5,760,,
2,Brad Leonard,M,SBD,MR-V,140+,Raw,2004,,OH,152.6,245,-255,-255,245,-165,-165,165,165,265,-275,-275,265,675,,
3,Carter Nielsen,M,SBD,MR-V,140+,Raw,2005,,WI,177.4,252.5,-260,275,275,135,145,147.5,147.5,230,-232.5,232.5,232.5,655,,
4,Miguel Castellanos,M,SBD,MR-V,140+,Raw,2006,,NE,165.25,200,215,-220,215,147.5,160,-167.5,160,225,-237.5,237.5,237.5,612.5,,
5,Robert Mash,M,SBD,MR-V,140+,Raw,2006,,TX,172.45,200,-220,-220,200,115,120,132.5,132.5,147.5,-170,177.5,177.5,510,,
DQ,Joseph Davidman,M,SBD,MR-V,140+,Raw,2004,,NJ,166.95,295,317.5,-327.5,317.5,-137.5,-145,-145,,,,,,,,
1,Tommy Connell,M,SBD,MR-V,67.5,Raw,2005,,NE,66.55,185,195,205,205,120,125,127.5,127.5,220,227.5,,227.5,560,,
2,Izek Keodouangdy,M,SBD,MR-V,67.5,Raw,2006,,FL,65.65,175,-185,192.5,192.5,95,100,-107.5,100,210,222.5,240,240,532.5,,
3,Garrett Rogers,M,SBD,MR-V,67.5,Raw,2006,,DE,65.8,160,167.5,172.5,172.5,97.5,102.5,105,105,230,237.5,242.5,242.5,520,,
4,Daniel Jackson #2,M,SBD,MR-V,67.5,Raw,2005,,PA,67.45,162.5,175,-182.5,175,105,110,115,115,212.5,-225,225,225,515,,
5,Jonas Johnson,M,SBD,MR-V,67.5,Raw,2008,,TX,65.95,-165,165,-190,165,95,102.5,107.5,107.5,215,-235,235,235,507.5,,
6,Angelo Samson,M,SBD,MR-V,67.5,Raw,2005,,VA,65.1,155,162.5,-170,162.5,82.5,87.5,92.5,92.5,220,232.5,242.5,242.5,497.5,,
7,Josh Lawson,M,SBD,MR-V,67.5,Raw,2005,,TX,64.1,-160,170,-175,170,110,120,125,125,175,190,195,195,490,,
8,Timothy Story,M,SBD,MR-V,67.5,Raw,2005,,WI,66.7,165,175,-180,175,95,102.5,105,105,190,200,-207.5,200,480,,
9,Hayden Cantrell,M,SBD,MR-V,67.5,Raw,2005,,NE,66.9,165,172.5,177.5,177.5,102.5,107.5,110,110,170,180,187.5,187.5,475,,
10,Dylan Wenger,M,SBD,MR-V,67.5,Raw,2005,,WI,66.4,-160,160,165,165,92.5,95,-97.5,95,207.5,212.5,-215,212.5,472.5,,
11,Dilan Patel,M,SBD,MR-V,67.5,Raw,2004,,TX,66.7,155,167.5,-177.5,167.5,92.5,-100,100,100,180,-192.5,205,205,472.5,,
12,Alexandro Mateo,M,SBD,MR-V,67.5,Raw,2005,,NE,66.1,162.5,170,-180,170,107.5,112.5,117.5,117.5,175,182.5,-192.5,182.5,470,,
13,Alexander Krut,M,SBD,MR-V,67.5,Raw,2004,,PA,67.5,150,162.5,167.5,167.5,92.5,-100,-100,92.5,187.5,202.5,210,210,470,,
14,Hayden Vasseur,M,SBD,MR-V,67.5,Raw,2005,,LA,61.35,165,-177.5,-180,165,92.5,97.5,100,100,200,-207.5,-207.5,200,465,,
15,Drayden Hannan,M,SBD,MR-V,67.5,Raw,2007,Winneconne High School,WI,67.5,155,162.5,167.5,167.5,97.5,-102.5,-102.5,97.5,192.5,200,-202.5,200,465,,
16,Vincent Eveland,M,SBD,MR-V,67.5,Raw,2007,,OH,65.95,-165,167.5,175,175,120,125,-130,125,162.5,-167.5,-167.5,162.5,462.5,,
17,Christopher Pinto,M,SBD,MR-V,67.5,Raw,2007,,MA,65.35,150,160,165,165,97.5,102.5,-110,102.5,182.5,192.5,-200,192.5,460,,
18,Dayne Laney,M,SBD,MR-V,67.5,Raw,2006,Elk Mound High School Powerlifting,WI,67,150,160,-167.5,160,97.5,105,-110,105,-195,195,-205,195,460,,
19,Miles Tolman,M,SBD,MR-V,67.5,Raw,2006,,CT,66.5,137.5,140,162.5,162.5,87.5,95,102.5,102.5,180,192.5,-200,192.5,457.5,,
20,Keegan Saloka,M,SBD,MR-V,67.5,Raw,2005,,WI,65.65,162.5,-172.5,-172.5,162.5,102.5,107.5,110,110,182.5,-190,-190,182.5,455,,
21,Devon Tasker,M,SBD,MR-V,67.5,Raw,2005,,WI,66.8,137.5,147.5,155,155,105,110,115,115,165,175,185,185,455,,
22,Francis Zeller,M,SBD,MR-V,67.5,Raw,2005,Winneconne High School,WI,65.3,145,157.5,162.5,162.5,97.5,-105,-105,97.5,185,192.5,-195,192.5,452.5,,
23,Matthew Slechta,M,SBD,MR-V,67.5,Raw,2004,,WI,66.65,142.5,155,160,160,87.5,95,97.5,97.5,165,175,185,185,442.5,,
24,Will Heineman,M,SBD,MR-V,67.5,Raw,2005,,SD,66.8,162.5,-170,-170,162.5,82.5,85,87.5,87.5,170,177.5,185,185,435,,
25,Connor Christenson,M,SBD,MR-V,67.5,Raw,2006,,FL,67.3,-160,-170,170,170,-85,90,-95,90,167.5,175,-185,175,435,,
26,Miguel Matías Guzman Droguett,M,SBD,MR-V,67.5,Raw,2006,,WI,65.9,135,145,-150,145,-90,-90,90,90,180,190,197.5,197.5,432.5,,
27,Bennett Chodorow,M,SBD,MR-V,67.5,Raw,2004,,CA,65.6,157.5,160,-165,160,80,85,87.5,87.5,165,172.5,180,180,427.5,,
28,Brody Harvey,M,SBD,MR-V,67.5,Raw,2005,,WI,65,140,147.5,150,150,90,95,-97.5,95,167.5,177.5,-182.5,177.5,422.5,,
29,Gabriel Harris,M,SBD,MR-V,67.5,Raw,2004,,VA,64.8,127.5,140,145,145,82.5,92.5,-97.5,92.5,165,182.5,-185,182.5,420,,
30,Samuel Beagle,M,SBD,MR-V,67.5,Raw,2004,,MI,66.55,135,140,142.5,142.5,90,95,-97.5,95,170,177.5,182.5,182.5,420,,
31,Skylar Lambert,M,SBD,MR-V,67.5,Raw,2005,,WI,67.15,-142.5,142.5,-150,142.5,97.5,100,-102.5,100,175,-185,-185,175,417.5,,
32,Richard Comstock,M,SBD,MR-V,67.5,Raw,2005,,VA,67.25,140,152.5,157.5,157.5,82.5,90,-92.5,90,145,157.5,165,165,412.5,,
33,Daniel Gordon,M,SBD,MR-V,67.5,Raw,2004,,WI,65.85,125,127.5,142.5,142.5,95,105,-110,105,142.5,152.5,162.5,162.5,410,,
34,Felipe Zaldivar,M,SBD,MR-V,67.5,Raw,2005,,NE,66.75,125,130,135,135,82.5,87.5,92.5,92.5,165,175,182.5,182.5,410,,
35,TJ Noonan,M,SBD,MR-V,67.5,Raw,2006,,IL,65,-145,150,-155,150,75,-77.5,77.5,77.5,160,170,-175,170,397.5,,
36,Steven Severson,M,SBD,MR-V,67.5,Raw,2006,,WI,65.8,140,145,-150,145,82.5,87.5,-92.5,87.5,152.5,162.5,-175,162.5,395,,
37,Braedon Thatcher,M,SBD,MR-V,67.5,Raw,2005,,WI,66.95,145,150,-152.5,150,75,-77.5,,75,157.5,167.5,-172.5,167.5,392.5,,
38,Cole Vargo,M,SBD,MR-V,67.5,Raw,2004,,WI,63.65,115,130,-140,130,70,-87.5,-87.5,70,160,175,187.5,187.5,387.5,,
39,Trung Le,M,SBD,MR-V,67.5,Raw,2004,,MA,65.7,122.5,-130,130,130,65,70,-75,70,167.5,177.5,182.5,182.5,382.5,,
40,Marvin Hoang,M,SBD,MR-V,67.5,Raw,2004,,MA,66.55,127.5,135,142.5,142.5,65,70,-72.5,70,167.5,-175,-175,167.5,380,,
41,Simon Brown,M,SBD,MR-V,67.5,Raw,2006,,MA,67.45,127.5,135,137.5,137.5,72.5,77.5,82.5,82.5,142.5,152.5,-160,152.5,372.5,,
42,Zeron Thach,M,SBD,MR-V,67.5,Raw,2004,,MA,65.05,125,132.5,142.5,142.5,65,-67.5,-67.5,65,145,152.5,160,160,367.5,,
43,Grant Brown #2,M,SBD,MR-V,67.5,Raw,2005,,WI,63.6,117.5,122.5,127.5,127.5,72.5,77.5,-80,77.5,152.5,157.5,-165,157.5,362.5,,
44,Cooper Reese,M,SBD,MR-V,67.5,Raw,2005,,WI,67.1,100,110,-120,110,80,-85,-85,80,-150,150,152.5,152.5,342.5,,
45,Robby Murray,M,SBD,MR-V,67.5,Raw,2006,,WI,67.4,-105,112.5,-120,112.5,60,65,-70,65,157.5,165,-172.5,165,342.5,,
46,Rivaldo Vargas-Ramirez,M,SBD,MR-V,67.5,Raw,2006,,NE,65.6,102.5,110,115,115,62.5,67.5,-72.5,67.5,127.5,135,142.5,142.5,325,,
47,Trevor Jackson,M,SBD,MR-V,67.5,Raw,2004,,WY,62.05,82.5,95,-100,95,72.5,-75,75,75,127.5,142.5,152.5,152.5,322.5,,
48,Andrew Leedham,M,SBD,MR-V,67.5,Raw,2008,,MA,64.45,107.5,-112.5,-112.5,107.5,70,-75,-75,70,122.5,127.5,132.5,132.5,310,,
DQ,Leonel Jaimes,M,SBD,MR-V,67.5,Raw,2005,,KS,62.4,-150,-150,-150,,82.5,87.5,-92.5,87.5,182.5,-190,-190,182.5,,,
DQ,Nihar Murali,M,SBD,MR-V,67.5,Raw,2005,,MO,66.45,-135,-145,145,145,-55,-65,-65,,145,155,-165,155,,,
DQ,Tyler Gagner,M,SBD,MR-V,67.5,Raw,2005,Elk Mound High School Powerlifting,WI,66.95,-132.5,-137.5,-137.5,,85,-90,-90,85,182.5,-192.5,-192.5,182.5,,,
1,Michael Crehan,M,SBD,MR-V,82.5,Raw,2005,,NY,81.55,265,-280,285,285,145,155,-160,155,265,280,-287.5,280,720,,
2,Zach Wegner,M,SBD,MR-V,82.5,Raw,2005,,WI,81.36,212.5,220,225,225,145,150,-155,150,-265,267.5,-277.5,267.5,642.5,,
3,Rodric Cabrera,M,SBD,MR-V,82.5,Raw,2005,,FL,81.85,220,-235,235,235,150,157.5,-165,157.5,210,225,240,240,632.5,,
4,Dylan Albert,M,SBD,MR-V,82.5,Raw,2004,,LA,79.4,-240,240,-265,240,125,130,-140,130,227.5,240,247.5,247.5,617.5,,
5,Wyatt Douda,M,SBD,MR-V,82.5,Raw,2005,,CA,78.45,195,207.5,215,215,140,147.5,150,150,225,240,247.5,247.5,612.5,,
6,Roman Vrana,M,SBD,MR-V,82.5,Raw,2004,,KS,80.9,240,-250,-250,240,-145,-152.5,152.5,152.5,210,-220,-220,210,602.5,,
7,Jace Loignon,M,SBD,MR-V,82.5,Raw,2004,Winneconne High School,WI,81.75,220,232.5,237.5,237.5,130,135,-137.5,135,220,230,-235,230,602.5,,
9,Justin May,M,SBD,MR-V,82.5,Raw,2004,,TX,82.05,202.5,207.5,-210,207.5,130,-135,135,135,230,240,-247.5,240,582.5,,
10,Tristan Niewenhuis,M,SBD,MR-V,82.5,Raw,2005,,SD,81.15,200,212.5,227.5,227.5,102.5,107.5,-115,107.5,217.5,235,245,245,580,,
11,Darean Rowland,M,SBD,MR-V,82.5,Raw,2005,,NJ,80,200,210,215,215,125,130,132.5,132.5,225,-240,-242.5,225,572.5,,
12,Gavin Johnson,M,SBD,MR-V,82.5,Raw,2006,,SC,79.75,195,-205,205,205,127.5,135,140,140,212.5,225,-232.5,225,570,,
13,Steven Austermann,M,SBD,MR-V,82.5,Raw,2005,,CO,81.45,195,207.5,-215,207.5,125,130,-135,130,220,232.5,-237.5,232.5,570,,
14,Brayden Reimer,M,SBD,MR-V,82.5,Raw,2005,,WI,80.8,220,232.5,240,240,110,117.5,-125,117.5,-205,210,-227.5,210,567.5,,
15,Lucas Groff,M,SBD,MR-V,82.5,Raw,2005,,OH,81.55,200,-210,-210,200,122.5,127.5,-135,127.5,230,240,-245,240,567.5,,
16,Jay Kaewrasamee,M,SBD,MR-V,82.5,Raw,2005,,FL,78.9,-197.5,197.5,212.5,212.5,105,112.5,-115,112.5,220,235,-250,235,560,,
17,Luke Rothrock,M,SBD,MR-V,82.5,Raw,2005,,NC,81.3,185,195,200,200,130,-140,-140,130,200,215,230,230,560,,
18,John Strauch VI,M,SBD,MR-V,82.5,Raw,2005,,CO,79.15,-202.5,202.5,215,215,112.5,117.5,-122.5,117.5,202.5,215,225,225,557.5,,
19,Riley Morgan,M,SBD,MR-V,82.5,Raw,2005,,MI,81.9,180,182.5,-197.5,182.5,120,125,-130,125,220,240,-247.5,240,547.5,,
20,Sohan Lloyd,M,SBD,MR-V,82.5,Raw,2005,,FL,78.3,-177.5,177.5,190,190,117.5,127.5,-135,127.5,192.5,210,227.5,227.5,545,,
21,Brody Boicourt,M,SBD,MR-V,82.5,Raw,2005,,MO,81.85,162.5,180,195,195,115,-135,135,135,197.5,215,-232.5,215,545,,
22,Jimmy Kane,M,SBD,MR-V,82.5,Raw,2005,,NJ,81.9,185,195,-205,195,115,122.5,125,125,200,215,225,225,545,,
23,Elijah Plinsky,M,SBD,MR-V,82.5,Raw,2005,,TX,82.45,192.5,205,-217.5,205,102.5,110,115,115,205,217.5,-227.5,217.5,537.5,,
24,Vincent Cardoza,M,SBD,MR-V,82.5,Raw,2006,Neenah Powerlifting,WI,80.55,182.5,192.5,-202.5,192.5,95,102.5,105,105,225,237.5,-250,237.5,535,,
25,Gray McCurdy,M,SBD,MR-V,82.5,Raw,2006,,CO,82.45,155,165,172.5,172.5,125,132.5,137.5,137.5,212.5,-220,220,220,530,,
26,Jackson Voss,M,SBD,MR-V,82.5,Raw,2005,,FL,80.65,165,177.5,185,185,117.5,125,132.5,132.5,192.5,202.5,210,210,527.5,,
27,Dillon Weber,M,SBD,MR-V,82.5,Raw,2005,,WI,79.8,165,175,182.5,182.5,125,130,-135,130,197.5,210,-215,210,522.5,,
28,Ethan Johnson #9,M,SBD,MR-V,82.5,Raw,2005,,WY,81.25,175,185,-190,185,100,110,-115,110,225,-240,-240,225,520,,
29,Sam Coleman,M,SBD,MR-V,82.5,Raw,2005,,WI,80.35,177.5,-187.5,187.5,187.5,92.5,100,107.5,107.5,215,-230,-230,215,510,,
30,Shepherd Scimemi,M,SBD,MR-V,82.5,Raw,2006,,TX,78.35,177.5,190,195,195,112.5,117.5,-122.5,117.5,195,-212.5,-212.5,195,507.5,,
31,Jake Campbell,M,SBD,MR-V,82.5,Raw,2006,,WI,79.85,195,-205,212.5,212.5,92.5,102.5,-107.5,102.5,180,185,192.5,192.5,507.5,,
32,Anson Oehrlein,M,SBD,MR-V,82.5,Raw,2005,,NC,80.1,-177.5,185,190,190,102.5,107.5,112.5,112.5,200,205,-207.5,205,507.5,,
33,Jack Brookman,M,SBD,MR-V,82.5,Raw,2006,,PA,81.8,177.5,187.5,195,195,102.5,107.5,-112.5,107.5,200,-210,-210,200,502.5,,
34,Cale Campbell,M,SBD,MR-V,82.5,Raw,2005,,WI,79.9,165,172.5,-180,172.5,102.5,110,-112.5,110,202.5,215,-220,215,497.5,,
35,Ian Brain,M,SBD,MR-V,82.5,Raw,2005,,ME,81.55,160,170,177.5,177.5,102.5,110,115,115,190,200,-220,200,492.5,,
36,Nathan Stark,M,SBD,MR-V,82.5,Raw,2004,,WI,81.8,-165,-165,165,165,110,-117.5,-117.5,110,207.5,212.5,-217.5,212.5,487.5,,
37,Wyatt Jordan,M,SBD,MR-V,82.5,Raw,2004,,WI,79.05,175,-182.5,182.5,182.5,112.5,117.5,-120,117.5,-185,185,-205,185,485,,
38,Keegan Lauersdorf,M,SBD,MR-V,82.5,Raw,2006,,WI,81.55,155,162.5,170,170,105,110,-115,110,190,200,205,205,485,,
39,Hudson Tamulion,M,SBD,MR-V,82.5,Raw,2005,Neenah Powerlifting,WI,79.5,165,175,-182.5,175,87.5,-92.5,92.5,92.5,192.5,205,215,215,482.5,,
40,Ashton Post,M,SBD,MR-V,82.5,Raw,2006,,WI,80.05,172.5,180,-187.5,180,95,100,-105,100,197.5,-210,-220,197.5,477.5,,
41,Hunter Jorgenson,M,SBD,MR-V,82.5,Raw,2004,,NJ,81.95,-152.5,160,-170,160,112.5,-115,-115,112.5,202.5,-217.5,-217.5,202.5,475,,
42,Andrew Rodriguez,M,SBD,MR-V,82.5,Raw,2005,,NE,81.55,155,165,175,175,97.5,102.5,-107.5,102.5,177.5,185,192.5,192.5,470,,
43,Raphael LeDonne,M,SBD,MR-V,82.5,Raw,2007,,MA,80.45,155,165,-175,165,-90,92.5,-97.5,92.5,200,210,-220,210,467.5,,
44,Jonathan Viliott,M,SBD,MR-V,82.5,Raw,2005,,MA,79.25,150,157.5,-165,157.5,107.5,112.5,-120,112.5,185,192.5,-200,192.5,462.5,,
45,Elijah Sorenson,M,SBD,MR-V,82.5,Raw,2005,Elk Mound High School Powerlifting,WI,80.6,150,160,-162.5,160,107.5,115,-120,115,165,-167.5,,165,440,,
DQ,Nathan Maddock,M,SBD,MR-V,82.5,Raw,2005,,NY,75.55,180,190,200,200,105,112.5,-115,112.5,175,185,200,200,,,
DQ,Geuntae Kim,M,SBD,MR-V,82.5,Raw,2003,,WI,80.15,-165,-165,-170,,95,-100,-100,95,185,-197.5,197.5,197.5,,,
8,Caden Knox,M,SBD,MR-V,82.5,Raw,2006,,TX,80.65,205,220,-227.5,220,125,132.5,137.5,137.5,220,235,-247.5,235,592.5,,
DQ,Braden Hall,M,SBD,MR-V,82.5,Raw,2005,,TX,82.1,-237.5,-237.5,-237.5,,127.5,137.5,142.5,142.5,232.5,245,255,255,,,
DQ,Evan Johnson #5,M,SBD,MR-V,82.5,Raw,2005,,KY,82.35,-177.5,-180,-180,,95,100,105,105,235,250,-260,250,,,
1,Nathan Lovemore,M,SBD,M-T2,67.5,Single-ply,2006,TruBorn Strong,LA,63.4,-225,230,-240,230,125,132.5,142.5,142.5,230,240,-242.5,240,612.5,,
